[2021-10-24T19:14:00.103+0200][gc,heap] Heap region size: 1M
[2021-10-24T19:14:00.112+0200][gc     ] Using G1
[2021-10-24T19:14:00.112+0200][gc,heap,coops] Heap address: 0x00000000c0000000, size: 1024 MB, Compressed Oops mode: 32-bit
[2021-10-24T19:14:00.112+0200][gc,cds       ] Mark closed archive regions in map: [0x00000000fff00000, 0x00000000fff6aff8]
[2021-10-24T19:14:00.112+0200][gc,cds       ] Mark open archive regions in map: [0x00000000ffe00000, 0x00000000ffe46ff8]
[2021-10-24T19:14:01.365+0200][gc,start     ] GC(0) Pause Young (Normal) (G1 Evacuation Pause)
[2021-10-24T19:14:01.365+0200][gc,task      ] GC(0) Using 2 workers of 2 for evacuation
[2021-10-24T19:14:01.374+0200][gc,phases    ] GC(0)   Pre Evacuate Collection Set: 0.0ms
[2021-10-24T19:14:01.374+0200][gc,phases    ] GC(0)   Evacuate Collection Set: 9.2ms
[2021-10-24T19:14:01.374+0200][gc,phases    ] GC(0)   Post Evacuate Collection Set: 0.4ms
[2021-10-24T19:14:01.374+0200][gc,phases    ] GC(0)   Other: 0.4ms
[2021-10-24T19:14:01.374+0200][gc,heap      ] GC(0) Eden regions: 51->0(44)
[2021-10-24T19:14:01.374+0200][gc,heap      ] GC(0) Survivor regions: 0->7(7)
[2021-10-24T19:14:01.375+0200][gc,heap      ] GC(0) Old regions: 2->2
[2021-10-24T19:14:01.375+0200][gc,heap      ] GC(0) Humongous regions: 0->0
[2021-10-24T19:14:01.375+0200][gc,metaspace ] GC(0) Metaspace: 15831K->15831K(1062912K)
[2021-10-24T19:14:01.375+0200][gc           ] GC(0) Pause Young (Normal) (G1 Evacuation Pause) 51M->6M(1024M) 9.990ms
[2021-10-24T19:14:01.375+0200][gc,cpu       ] GC(0) User=0.01s Sys=0.02s Real=0.02s
[2021-10-24T19:14:01.577+0200][gc,heap,exit ] Heap
[2021-10-24T19:14:01.577+0200][gc,heap,exit ]  garbage-first heap   total 1048576K, used 17313K [0x00000000c0000000, 0x0000000100000000)
[2021-10-24T19:14:01.577+0200][gc,heap,exit ]   region size 1024K, 18 young (18432K), 7 survivors (7168K)
[2021-10-24T19:14:01.577+0200][gc,heap,exit ]  Metaspace       used 18636K, capacity 19125K, committed 19456K, reserved 1067008K
[2021-10-24T19:14:01.577+0200][gc,heap,exit ]   class space    used 2267K, capacity 2448K, committed 2560K, reserved 1048576K
