[2021-10-24T19:14:07.270+0200][gc,heap] Heap region size: 1M
[2021-10-24T19:14:07.278+0200][gc     ] Using G1
[2021-10-24T19:14:07.278+0200][gc,heap,coops] Heap address: 0x00000000c0000000, size: 1024 MB, Compressed Oops mode: 32-bit
[2021-10-24T19:14:07.278+0200][gc,cds       ] Mark closed archive regions in map: [0x00000000fff00000, 0x00000000fff6aff8]
[2021-10-24T19:14:07.278+0200][gc,cds       ] Mark open archive regions in map: [0x00000000ffe00000, 0x00000000ffe46ff8]
[2021-10-24T19:14:09.205+0200][gc,start     ] GC(0) Pause Young (Normal) (G1 Evacuation Pause)
[2021-10-24T19:14:09.206+0200][gc,task      ] GC(0) Using 2 workers of 2 for evacuation
[2021-10-24T19:14:09.215+0200][gc,phases    ] GC(0)   Pre Evacuate Collection Set: 0.0ms
[2021-10-24T19:14:09.215+0200][gc,phases    ] GC(0)   Evacuate Collection Set: 8.4ms
[2021-10-24T19:14:09.215+0200][gc,phases    ] GC(0)   Post Evacuate Collection Set: 0.4ms
[2021-10-24T19:14:09.215+0200][gc,phases    ] GC(0)   Other: 0.4ms
[2021-10-24T19:14:09.215+0200][gc,heap      ] GC(0) Eden regions: 51->0(44)
[2021-10-24T19:14:09.215+0200][gc,heap      ] GC(0) Survivor regions: 0->7(7)
[2021-10-24T19:14:09.215+0200][gc,heap      ] GC(0) Old regions: 2->2
[2021-10-24T19:14:09.215+0200][gc,heap      ] GC(0) Humongous regions: 0->0
[2021-10-24T19:14:09.215+0200][gc,metaspace ] GC(0) Metaspace: 15627K->15627K(1062912K)
[2021-10-24T19:14:09.215+0200][gc           ] GC(0) Pause Young (Normal) (G1 Evacuation Pause) 51M->6M(1024M) 9.245ms
[2021-10-24T19:14:09.215+0200][gc,cpu       ] GC(0) User=0.01s Sys=0.00s Real=0.01s
[2021-10-24T19:14:09.601+0200][gc,start     ] GC(1) Pause Young (Concurrent Start) (Metadata GC Threshold)
[2021-10-24T19:14:09.601+0200][gc,task      ] GC(1) Using 2 workers of 2 for evacuation
[2021-10-24T19:14:09.619+0200][gc,phases    ] GC(1)   Pre Evacuate Collection Set: 0.0ms
[2021-10-24T19:14:09.619+0200][gc,phases    ] GC(1)   Evacuate Collection Set: 16.4ms
[2021-10-24T19:14:09.619+0200][gc,phases    ] GC(1)   Post Evacuate Collection Set: 0.8ms
[2021-10-24T19:14:09.619+0200][gc,phases    ] GC(1)   Other: 0.3ms
[2021-10-24T19:14:09.619+0200][gc,heap      ] GC(1) Eden regions: 21->0(49)
[2021-10-24T19:14:09.619+0200][gc,heap      ] GC(1) Survivor regions: 7->2(7)
[2021-10-24T19:14:09.619+0200][gc,heap      ] GC(1) Old regions: 2->9
[2021-10-24T19:14:09.619+0200][gc,heap      ] GC(1) Humongous regions: 129->129
[2021-10-24T19:14:09.619+0200][gc,metaspace ] GC(1) Metaspace: 20524K->20524K(1067008K)
[2021-10-24T19:14:09.619+0200][gc           ] GC(1) Pause Young (Concurrent Start) (Metadata GC Threshold) 156M->137M(1024M) 17.650ms
[2021-10-24T19:14:09.619+0200][gc,cpu       ] GC(1) User=0.03s Sys=0.00s Real=0.02s
[2021-10-24T19:14:09.621+0200][gc           ] GC(2) Concurrent Cycle
[2021-10-24T19:14:09.621+0200][gc,marking   ] GC(2) Concurrent Clear Claimed Marks
[2021-10-24T19:14:09.621+0200][gc,marking   ] GC(2) Concurrent Clear Claimed Marks 0.043ms
[2021-10-24T19:14:09.621+0200][gc,marking   ] GC(2) Concurrent Scan Root Regions
[2021-10-24T19:14:09.622+0200][gc,marking   ] GC(2) Concurrent Scan Root Regions 0.583ms
[2021-10-24T19:14:09.622+0200][gc,marking   ] GC(2) Concurrent Mark (2.355s)
[2021-10-24T19:14:09.622+0200][gc,marking   ] GC(2) Concurrent Mark From Roots
[2021-10-24T19:14:09.622+0200][gc,task      ] GC(2) Using 1 workers of 1 for marking
[2021-10-24T19:14:09.640+0200][gc,marking   ] GC(2) Concurrent Mark From Roots 17.788ms
[2021-10-24T19:14:09.640+0200][gc,marking   ] GC(2) Concurrent Preclean
[2021-10-24T19:14:09.640+0200][gc,marking   ] GC(2) Concurrent Preclean 0.071ms
[2021-10-24T19:14:09.640+0200][gc,marking   ] GC(2) Concurrent Mark (2.355s, 2.373s) 17.912ms
[2021-10-24T19:14:09.640+0200][gc,start     ] GC(2) Pause Remark
[2021-10-24T19:14:09.647+0200][gc,stringtable] GC(2) Cleaned string and symbol table, strings: 4989 processed, 0 removed, symbols: 50844 processed, 40 removed
[2021-10-24T19:14:09.649+0200][gc            ] GC(2) Pause Remark 138M->138M(1024M) 8.212ms
[2021-10-24T19:14:09.649+0200][gc,cpu        ] GC(2) User=0.01s Sys=0.00s Real=0.01s
[2021-10-24T19:14:09.650+0200][gc,marking    ] GC(2) Concurrent Rebuild Remembered Sets
[2021-10-24T19:14:09.663+0200][gc,marking    ] GC(2) Concurrent Rebuild Remembered Sets 13.188ms
[2021-10-24T19:14:09.663+0200][gc,start      ] GC(2) Pause Cleanup
[2021-10-24T19:14:09.663+0200][gc            ] GC(2) Pause Cleanup 139M->139M(1024M) 0.233ms
[2021-10-24T19:14:09.663+0200][gc,cpu        ] GC(2) User=0.00s Sys=0.00s Real=0.00s
[2021-10-24T19:14:09.663+0200][gc,marking    ] GC(2) Concurrent Cleanup for Next Mark
[2021-10-24T19:14:09.684+0200][gc,marking    ] GC(2) Concurrent Cleanup for Next Mark 21.121ms
[2021-10-24T19:14:09.684+0200][gc            ] GC(2) Concurrent Cycle 63.259ms
[2021-10-24T19:14:10.460+0200][gc,start      ] GC(3) Pause Young (Normal) (G1 Evacuation Pause)
[2021-10-24T19:14:10.461+0200][gc,task       ] GC(3) Using 2 workers of 2 for evacuation
[2021-10-24T19:14:10.467+0200][gc,phases     ] GC(3)   Pre Evacuate Collection Set: 0.0ms
[2021-10-24T19:14:10.467+0200][gc,phases     ] GC(3)   Evacuate Collection Set: 5.8ms
[2021-10-24T19:14:10.467+0200][gc,phases     ] GC(3)   Post Evacuate Collection Set: 0.4ms
[2021-10-24T19:14:10.467+0200][gc,phases     ] GC(3)   Other: 0.7ms
[2021-10-24T19:14:10.467+0200][gc,heap       ] GC(3) Eden regions: 49->0(46)
[2021-10-24T19:14:10.467+0200][gc,heap       ] GC(3) Survivor regions: 2->5(7)
[2021-10-24T19:14:10.467+0200][gc,heap       ] GC(3) Old regions: 9->9
[2021-10-24T19:14:10.467+0200][gc,heap       ] GC(3) Humongous regions: 129->129
[2021-10-24T19:14:10.467+0200][gc,metaspace  ] GC(3) Metaspace: 29971K->29971K(1077248K)
[2021-10-24T19:14:10.467+0200][gc            ] GC(3) Pause Young (Normal) (G1 Evacuation Pause) 186M->140M(1024M) 6.981ms
[2021-10-24T19:14:10.467+0200][gc,cpu        ] GC(3) User=0.01s Sys=0.00s Real=0.01s
[2021-10-24T19:15:34.466+0200][gc,start      ] GC(4) Pause Young (Concurrent Start) (Metadata GC Threshold)
[2021-10-24T19:15:34.466+0200][gc,task       ] GC(4) Using 2 workers of 2 for evacuation
[2021-10-24T19:15:34.476+0200][gc,phases     ] GC(4)   Pre Evacuate Collection Set: 0.1ms
[2021-10-24T19:15:34.476+0200][gc,phases     ] GC(4)   Evacuate Collection Set: 9.6ms
[2021-10-24T19:15:34.476+0200][gc,phases     ] GC(4)   Post Evacuate Collection Set: 0.4ms
[2021-10-24T19:15:34.476+0200][gc,phases     ] GC(4)   Other: 0.6ms
[2021-10-24T19:15:34.476+0200][gc,heap       ] GC(4) Eden regions: 23->0(49)
[2021-10-24T19:15:34.476+0200][gc,heap       ] GC(4) Survivor regions: 5->2(7)
[2021-10-24T19:15:34.476+0200][gc,heap       ] GC(4) Old regions: 9->13
[2021-10-24T19:15:34.476+0200][gc,heap       ] GC(4) Humongous regions: 129->129
[2021-10-24T19:15:34.476+0200][gc,metaspace  ] GC(4) Metaspace: 34385K->34385K(1081344K)
[2021-10-24T19:15:34.477+0200][gc            ] GC(4) Pause Young (Concurrent Start) (Metadata GC Threshold) 162M->141M(1024M) 10.774ms
[2021-10-24T19:15:34.477+0200][gc,cpu        ] GC(4) User=0.01s Sys=0.00s Real=0.01s
[2021-10-24T19:15:34.477+0200][gc            ] GC(5) Concurrent Cycle
[2021-10-24T19:15:34.477+0200][gc,marking    ] GC(5) Concurrent Clear Claimed Marks
[2021-10-24T19:15:34.477+0200][gc,marking    ] GC(5) Concurrent Clear Claimed Marks 0.088ms
[2021-10-24T19:15:34.477+0200][gc,marking    ] GC(5) Concurrent Scan Root Regions
[2021-10-24T19:15:34.478+0200][gc,marking    ] GC(5) Concurrent Scan Root Regions 1.754ms
[2021-10-24T19:15:34.478+0200][gc,marking    ] GC(5) Concurrent Mark (87.212s)
[2021-10-24T19:15:34.478+0200][gc,marking    ] GC(5) Concurrent Mark From Roots
[2021-10-24T19:15:34.478+0200][gc,task       ] GC(5) Using 1 workers of 1 for marking
[2021-10-24T19:15:34.497+0200][gc,marking    ] GC(5) Concurrent Mark From Roots 18.543ms
[2021-10-24T19:15:34.497+0200][gc,marking    ] GC(5) Concurrent Preclean
[2021-10-24T19:15:34.497+0200][gc,marking    ] GC(5) Concurrent Preclean 0.057ms
[2021-10-24T19:15:34.497+0200][gc,marking    ] GC(5) Concurrent Mark (87.212s, 87.230s) 18.655ms
[2021-10-24T19:15:34.497+0200][gc,start      ] GC(5) Pause Remark
[2021-10-24T19:15:34.500+0200][gc,stringtable] GC(5) Cleaned string and symbol table, strings: 9899 processed, 12 removed, symbols: 80329 processed, 25 removed
[2021-10-24T19:15:34.501+0200][gc            ] GC(5) Pause Remark 142M->142M(1024M) 3.322ms
[2021-10-24T19:15:34.501+0200][gc,cpu        ] GC(5) User=0.01s Sys=0.00s Real=0.00s
[2021-10-24T19:15:34.501+0200][gc,marking    ] GC(5) Concurrent Rebuild Remembered Sets
[2021-10-24T19:15:34.508+0200][gc,marking    ] GC(5) Concurrent Rebuild Remembered Sets 7.559ms
[2021-10-24T19:15:34.509+0200][gc,start      ] GC(5) Pause Cleanup
[2021-10-24T19:15:34.509+0200][gc            ] GC(5) Pause Cleanup 142M->142M(1024M) 0.152ms
[2021-10-24T19:15:34.509+0200][gc,cpu        ] GC(5) User=0.00s Sys=0.00s Real=0.00s
[2021-10-24T19:15:34.509+0200][gc,marking    ] GC(5) Concurrent Cleanup for Next Mark
[2021-10-24T19:15:34.517+0200][gc,marking    ] GC(5) Concurrent Cleanup for Next Mark 7.708ms
[2021-10-24T19:15:34.517+0200][gc            ] GC(5) Concurrent Cycle 39.979ms
[2021-10-24T19:23:30.737+0200][gc,start      ] GC(6) Pause Young (Normal) (G1 Evacuation Pause)
[2021-10-24T19:23:30.737+0200][gc,task       ] GC(6) Using 2 workers of 2 for evacuation
[2021-10-24T19:23:30.766+0200][gc,mmu        ] GC(6) MMU target violated: 21.0ms (20.0ms/21.0ms)
[2021-10-24T19:23:30.766+0200][gc,phases     ] GC(6)   Pre Evacuate Collection Set: 0.3ms
[2021-10-24T19:23:30.766+0200][gc,phases     ] GC(6)   Evacuate Collection Set: 27.7ms
[2021-10-24T19:23:30.766+0200][gc,phases     ] GC(6)   Post Evacuate Collection Set: 0.6ms
[2021-10-24T19:23:30.766+0200][gc,phases     ] GC(6)   Other: 0.5ms
[2021-10-24T19:23:30.766+0200][gc,heap       ] GC(6) Eden regions: 49->0(47)
[2021-10-24T19:23:30.766+0200][gc,heap       ] GC(6) Survivor regions: 2->4(7)
[2021-10-24T19:23:30.766+0200][gc,heap       ] GC(6) Old regions: 13->13
[2021-10-24T19:23:30.766+0200][gc,heap       ] GC(6) Humongous regions: 129->129
[2021-10-24T19:23:30.766+0200][gc,metaspace  ] GC(6) Metaspace: 36001K->36001K(1081344K)
[2021-10-24T19:23:30.766+0200][gc            ] GC(6) Pause Young (Normal) (G1 Evacuation Pause) 190M->144M(1024M) 29.163ms
[2021-10-24T19:23:30.767+0200][gc,cpu        ] GC(6) User=0.06s Sys=0.00s Real=0.03s
[2021-10-24T19:32:54.489+0200][gc,start      ] GC(7) Pause Young (Normal) (G1 Evacuation Pause)
[2021-10-24T19:32:54.489+0200][gc,task       ] GC(7) Using 2 workers of 2 for evacuation
[2021-10-24T19:32:54.502+0200][gc,phases     ] GC(7)   Pre Evacuate Collection Set: 0.1ms
[2021-10-24T19:32:54.502+0200][gc,phases     ] GC(7)   Evacuate Collection Set: 10.6ms
[2021-10-24T19:32:54.502+0200][gc,phases     ] GC(7)   Post Evacuate Collection Set: 1.6ms
[2021-10-24T19:32:54.502+0200][gc,phases     ] GC(7)   Other: 0.6ms
[2021-10-24T19:32:54.502+0200][gc,heap       ] GC(7) Eden regions: 47->0(48)
[2021-10-24T19:32:54.502+0200][gc,heap       ] GC(7) Survivor regions: 4->3(7)
[2021-10-24T19:32:54.502+0200][gc,heap       ] GC(7) Old regions: 13->13
[2021-10-24T19:32:54.502+0200][gc,heap       ] GC(7) Humongous regions: 129->129
[2021-10-24T19:32:54.502+0200][gc,metaspace  ] GC(7) Metaspace: 36068K->36068K(1081344K)
[2021-10-24T19:32:54.502+0200][gc            ] GC(7) Pause Young (Normal) (G1 Evacuation Pause) 191M->143M(1024M) 13.071ms
[2021-10-24T19:32:54.502+0200][gc,cpu        ] GC(7) User=0.02s Sys=0.00s Real=0.01s
[2021-10-24T19:42:51.226+0200][gc,start      ] GC(8) Pause Young (Normal) (G1 Evacuation Pause)
[2021-10-24T19:42:51.226+0200][gc,task       ] GC(8) Using 2 workers of 2 for evacuation
[2021-10-24T19:42:51.233+0200][gc,phases     ] GC(8)   Pre Evacuate Collection Set: 0.2ms
[2021-10-24T19:42:51.233+0200][gc,phases     ] GC(8)   Evacuate Collection Set: 6.0ms
[2021-10-24T19:42:51.233+0200][gc,phases     ] GC(8)   Post Evacuate Collection Set: 0.4ms
[2021-10-24T19:42:51.233+0200][gc,phases     ] GC(8)   Other: 0.4ms
[2021-10-24T19:42:51.233+0200][gc,heap       ] GC(8) Eden regions: 48->0(47)
[2021-10-24T19:42:51.233+0200][gc,heap       ] GC(8) Survivor regions: 3->4(7)
[2021-10-24T19:42:51.233+0200][gc,heap       ] GC(8) Old regions: 13->13
[2021-10-24T19:42:51.233+0200][gc,heap       ] GC(8) Humongous regions: 129->129
[2021-10-24T19:42:51.233+0200][gc,metaspace  ] GC(8) Metaspace: 36174K->36174K(1083392K)
[2021-10-24T19:42:51.233+0200][gc            ] GC(8) Pause Young (Normal) (G1 Evacuation Pause) 191M->143M(1024M) 7.135ms
[2021-10-24T19:42:51.233+0200][gc,cpu        ] GC(8) User=0.01s Sys=0.00s Real=0.00s
[2021-10-24T19:53:08.587+0200][gc,start      ] GC(9) Pause Young (Normal) (G1 Evacuation Pause)
[2021-10-24T19:53:08.588+0200][gc,task       ] GC(9) Using 2 workers of 2 for evacuation
[2021-10-24T19:53:08.597+0200][gc,phases     ] GC(9)   Pre Evacuate Collection Set: 0.1ms
[2021-10-24T19:53:08.597+0200][gc,phases     ] GC(9)   Evacuate Collection Set: 8.3ms
[2021-10-24T19:53:08.597+0200][gc,phases     ] GC(9)   Post Evacuate Collection Set: 0.5ms
[2021-10-24T19:53:08.597+0200][gc,phases     ] GC(9)   Other: 0.5ms
[2021-10-24T19:53:08.597+0200][gc,heap       ] GC(9) Eden regions: 47->0(47)
[2021-10-24T19:53:08.597+0200][gc,heap       ] GC(9) Survivor regions: 4->4(7)
[2021-10-24T19:53:08.597+0200][gc,heap       ] GC(9) Old regions: 13->13
[2021-10-24T19:53:08.597+0200][gc,heap       ] GC(9) Humongous regions: 129->129
[2021-10-24T19:53:08.597+0200][gc,metaspace  ] GC(9) Metaspace: 36224K->36224K(1083392K)
[2021-10-24T19:53:08.597+0200][gc            ] GC(9) Pause Young (Normal) (G1 Evacuation Pause) 190M->144M(1024M) 9.423ms
[2021-10-24T19:53:08.597+0200][gc,cpu        ] GC(9) User=0.01s Sys=0.00s Real=0.01s
