[2021-10-24T19:09:19.544+0200][gc,heap] Heap region size: 1M
[2021-10-24T19:09:19.556+0200][gc     ] Using G1
[2021-10-24T19:09:19.556+0200][gc,heap,coops] Heap address: 0x00000000c0000000, size: 1024 MB, Compressed Oops mode: 32-bit
[2021-10-24T19:09:19.557+0200][gc,cds       ] Mark closed archive regions in map: [0x00000000fff00000, 0x00000000fff6aff8]
[2021-10-24T19:09:19.557+0200][gc,cds       ] Mark open archive regions in map: [0x00000000ffe00000, 0x00000000ffe46ff8]
[2021-10-24T19:09:21.194+0200][gc,start     ] GC(0) Pause Young (Normal) (G1 Evacuation Pause)
[2021-10-24T19:09:21.194+0200][gc,task      ] GC(0) Using 2 workers of 2 for evacuation
[2021-10-24T19:09:21.205+0200][gc,phases    ] GC(0)   Pre Evacuate Collection Set: 0.0ms
[2021-10-24T19:09:21.205+0200][gc,phases    ] GC(0)   Evacuate Collection Set: 9.9ms
[2021-10-24T19:09:21.205+0200][gc,phases    ] GC(0)   Post Evacuate Collection Set: 0.6ms
[2021-10-24T19:09:21.205+0200][gc,phases    ] GC(0)   Other: 0.4ms
[2021-10-24T19:09:21.205+0200][gc,heap      ] GC(0) Eden regions: 51->0(44)
[2021-10-24T19:09:21.205+0200][gc,heap      ] GC(0) Survivor regions: 0->7(7)
[2021-10-24T19:09:21.205+0200][gc,heap      ] GC(0) Old regions: 2->2
[2021-10-24T19:09:21.205+0200][gc,heap      ] GC(0) Humongous regions: 0->0
[2021-10-24T19:09:21.205+0200][gc,metaspace ] GC(0) Metaspace: 15765K->15765K(1062912K)
[2021-10-24T19:09:21.205+0200][gc           ] GC(0) Pause Young (Normal) (G1 Evacuation Pause) 51M->6M(1024M) 10.987ms
[2021-10-24T19:09:21.205+0200][gc,cpu       ] GC(0) User=0.02s Sys=0.00s Real=0.00s
[2021-10-24T19:09:21.461+0200][gc,heap,exit ] Heap
[2021-10-24T19:09:21.461+0200][gc,heap,exit ]  garbage-first heap   total 1048576K, used 17311K [0x00000000c0000000, 0x0000000100000000)
[2021-10-24T19:09:21.461+0200][gc,heap,exit ]   region size 1024K, 18 young (18432K), 7 survivors (7168K)
[2021-10-24T19:09:21.461+0200][gc,heap,exit ]  Metaspace       used 18617K, capacity 19125K, committed 19456K, reserved 1067008K
[2021-10-24T19:09:21.461+0200][gc,heap,exit ]   class space    used 2269K, capacity 2448K, committed 2560K, reserved 1048576K
