[2021-10-24T19:13:53.278+0200][gc,heap] Heap region size: 1M
[2021-10-24T19:13:53.286+0200][gc     ] Using G1
[2021-10-24T19:13:53.286+0200][gc,heap,coops] Heap address: 0x00000000c0000000, size: 1024 MB, Compressed Oops mode: 32-bit
[2021-10-24T19:13:53.287+0200][gc,cds       ] Mark closed archive regions in map: [0x00000000fff00000, 0x00000000fff6aff8]
[2021-10-24T19:13:53.287+0200][gc,cds       ] Mark open archive regions in map: [0x00000000ffe00000, 0x00000000ffe46ff8]
[2021-10-24T19:13:54.504+0200][gc,start     ] GC(0) Pause Young (Normal) (G1 Evacuation Pause)
[2021-10-24T19:13:54.504+0200][gc,task      ] GC(0) Using 2 workers of 2 for evacuation
[2021-10-24T19:13:54.513+0200][gc,phases    ] GC(0)   Pre Evacuate Collection Set: 0.0ms
[2021-10-24T19:13:54.513+0200][gc,phases    ] GC(0)   Evacuate Collection Set: 8.5ms
[2021-10-24T19:13:54.513+0200][gc,phases    ] GC(0)   Post Evacuate Collection Set: 0.4ms
[2021-10-24T19:13:54.513+0200][gc,phases    ] GC(0)   Other: 0.3ms
[2021-10-24T19:13:54.513+0200][gc,heap      ] GC(0) Eden regions: 51->0(44)
[2021-10-24T19:13:54.513+0200][gc,heap      ] GC(0) Survivor regions: 0->7(7)
[2021-10-24T19:13:54.513+0200][gc,heap      ] GC(0) Old regions: 2->2
[2021-10-24T19:13:54.513+0200][gc,heap      ] GC(0) Humongous regions: 0->0
[2021-10-24T19:13:54.513+0200][gc,metaspace ] GC(0) Metaspace: 15609K->15609K(1062912K)
[2021-10-24T19:13:54.514+0200][gc           ] GC(0) Pause Young (Normal) (G1 Evacuation Pause) 51M->6M(1024M) 9.263ms
[2021-10-24T19:13:54.514+0200][gc,cpu       ] GC(0) User=0.00s Sys=0.01s Real=0.02s
[2021-10-24T19:13:55.021+0200][gc,start     ] GC(1) Pause Young (Concurrent Start) (Metadata GC Threshold)
[2021-10-24T19:13:55.021+0200][gc,task      ] GC(1) Using 2 workers of 2 for evacuation
[2021-10-24T19:13:55.031+0200][gc,phases    ] GC(1)   Pre Evacuate Collection Set: 0.0ms
[2021-10-24T19:13:55.032+0200][gc,phases    ] GC(1)   Evacuate Collection Set: 9.4ms
[2021-10-24T19:13:55.032+0200][gc,phases    ] GC(1)   Post Evacuate Collection Set: 0.3ms
[2021-10-24T19:13:55.032+0200][gc,phases    ] GC(1)   Other: 0.2ms
[2021-10-24T19:13:55.032+0200][gc,heap      ] GC(1) Eden regions: 21->0(49)
[2021-10-24T19:13:55.032+0200][gc,heap      ] GC(1) Survivor regions: 7->2(7)
[2021-10-24T19:13:55.032+0200][gc,heap      ] GC(1) Old regions: 2->9
[2021-10-24T19:13:55.032+0200][gc,heap      ] GC(1) Humongous regions: 129->129
[2021-10-24T19:13:55.032+0200][gc,metaspace ] GC(1) Metaspace: 20595K->20595K(1067008K)
[2021-10-24T19:13:55.032+0200][gc           ] GC(1) Pause Young (Concurrent Start) (Metadata GC Threshold) 156M->137M(1024M) 10.103ms
[2021-10-24T19:13:55.032+0200][gc,cpu       ] GC(1) User=0.01s Sys=0.01s Real=0.01s
[2021-10-24T19:13:55.032+0200][gc           ] GC(2) Concurrent Cycle
[2021-10-24T19:13:55.032+0200][gc,marking   ] GC(2) Concurrent Clear Claimed Marks
[2021-10-24T19:13:55.032+0200][gc,marking   ] GC(2) Concurrent Clear Claimed Marks 0.051ms
[2021-10-24T19:13:55.032+0200][gc,marking   ] GC(2) Concurrent Scan Root Regions
[2021-10-24T19:13:55.033+0200][gc,marking   ] GC(2) Concurrent Scan Root Regions 0.939ms
[2021-10-24T19:13:55.033+0200][gc,marking   ] GC(2) Concurrent Mark (1.757s)
[2021-10-24T19:13:55.033+0200][gc,marking   ] GC(2) Concurrent Mark From Roots
[2021-10-24T19:13:55.033+0200][gc,task      ] GC(2) Using 1 workers of 1 for marking
[2021-10-24T19:13:55.046+0200][gc,marking   ] GC(2) Concurrent Mark From Roots 13.393ms
[2021-10-24T19:13:55.046+0200][gc,marking   ] GC(2) Concurrent Preclean
[2021-10-24T19:13:55.046+0200][gc,marking   ] GC(2) Concurrent Preclean 0.069ms
[2021-10-24T19:13:55.046+0200][gc,marking   ] GC(2) Concurrent Mark (1.757s, 1.770s) 13.510ms
[2021-10-24T19:13:55.047+0200][gc,start     ] GC(2) Pause Remark
[2021-10-24T19:13:55.050+0200][gc,stringtable] GC(2) Cleaned string and symbol table, strings: 4988 processed, 0 removed, symbols: 51191 processed, 40 removed
[2021-10-24T19:13:55.050+0200][gc            ] GC(2) Pause Remark 138M->138M(1024M) 3.308ms
[2021-10-24T19:13:55.050+0200][gc,cpu        ] GC(2) User=0.00s Sys=0.00s Real=0.00s
[2021-10-24T19:13:55.051+0200][gc,marking    ] GC(2) Concurrent Rebuild Remembered Sets
[2021-10-24T19:13:55.054+0200][gc,marking    ] GC(2) Concurrent Rebuild Remembered Sets 3.719ms
[2021-10-24T19:13:55.055+0200][gc,start      ] GC(2) Pause Cleanup
[2021-10-24T19:13:55.055+0200][gc            ] GC(2) Pause Cleanup 138M->138M(1024M) 0.188ms
[2021-10-24T19:13:55.055+0200][gc,cpu        ] GC(2) User=0.00s Sys=0.00s Real=0.00s
[2021-10-24T19:13:55.055+0200][gc,marking    ] GC(2) Concurrent Cleanup for Next Mark
[2021-10-24T19:13:55.063+0200][gc,marking    ] GC(2) Concurrent Cleanup for Next Mark 7.861ms
[2021-10-24T19:13:55.063+0200][gc            ] GC(2) Concurrent Cycle 31.113ms
[2021-10-24T19:13:56.058+0200][gc,start      ] GC(3) Pause Young (Normal) (G1 Evacuation Pause)
[2021-10-24T19:13:56.058+0200][gc,task       ] GC(3) Using 2 workers of 2 for evacuation
[2021-10-24T19:13:56.082+0200][gc,mmu        ] GC(3) MMU target violated: 21.0ms (20.0ms/21.0ms)
[2021-10-24T19:13:56.082+0200][gc,phases     ] GC(3)   Pre Evacuate Collection Set: 0.0ms
[2021-10-24T19:13:56.082+0200][gc,phases     ] GC(3)   Evacuate Collection Set: 22.5ms
[2021-10-24T19:13:56.082+0200][gc,phases     ] GC(3)   Post Evacuate Collection Set: 0.8ms
[2021-10-24T19:13:56.082+0200][gc,phases     ] GC(3)   Other: 0.4ms
[2021-10-24T19:13:56.082+0200][gc,heap       ] GC(3) Eden regions: 49->0(46)
[2021-10-24T19:13:56.082+0200][gc,heap       ] GC(3) Survivor regions: 2->5(7)
[2021-10-24T19:13:56.082+0200][gc,heap       ] GC(3) Old regions: 9->9
[2021-10-24T19:13:56.082+0200][gc,heap       ] GC(3) Humongous regions: 129->129
[2021-10-24T19:13:56.082+0200][gc,metaspace  ] GC(3) Metaspace: 29940K->29940K(1077248K)
[2021-10-24T19:13:56.082+0200][gc            ] GC(3) Pause Young (Normal) (G1 Evacuation Pause) 186M->140M(1024M) 23.717ms
[2021-10-24T19:13:56.082+0200][gc,cpu        ] GC(3) User=0.02s Sys=0.01s Real=0.02s
[2021-10-24T19:15:30.674+0200][gc,start      ] GC(4) Pause Young (Concurrent Start) (Metadata GC Threshold)
[2021-10-24T19:15:30.674+0200][gc,task       ] GC(4) Using 2 workers of 2 for evacuation
[2021-10-24T19:15:30.707+0200][gc,mmu        ] GC(4) MMU target violated: 21.0ms (20.0ms/21.0ms)
[2021-10-24T19:15:30.707+0200][gc,phases     ] GC(4)   Pre Evacuate Collection Set: 0.1ms
[2021-10-24T19:15:30.707+0200][gc,phases     ] GC(4)   Evacuate Collection Set: 32.1ms
[2021-10-24T19:15:30.707+0200][gc,phases     ] GC(4)   Post Evacuate Collection Set: 0.4ms
[2021-10-24T19:15:30.707+0200][gc,phases     ] GC(4)   Other: 0.7ms
[2021-10-24T19:15:30.707+0200][gc,heap       ] GC(4) Eden regions: 21->0(49)
[2021-10-24T19:15:30.707+0200][gc,heap       ] GC(4) Survivor regions: 5->2(7)
[2021-10-24T19:15:30.707+0200][gc,heap       ] GC(4) Old regions: 9->13
[2021-10-24T19:15:30.707+0200][gc,heap       ] GC(4) Humongous regions: 129->129
[2021-10-24T19:15:30.707+0200][gc,metaspace  ] GC(4) Metaspace: 34345K->34345K(1081344K)
[2021-10-24T19:15:30.707+0200][gc            ] GC(4) Pause Young (Concurrent Start) (Metadata GC Threshold) 161M->141M(1024M) 33.338ms
[2021-10-24T19:15:30.707+0200][gc,cpu        ] GC(4) User=0.02s Sys=0.00s Real=0.03s
[2021-10-24T19:15:30.707+0200][gc            ] GC(5) Concurrent Cycle
[2021-10-24T19:15:30.707+0200][gc,marking    ] GC(5) Concurrent Clear Claimed Marks
[2021-10-24T19:15:30.707+0200][gc,marking    ] GC(5) Concurrent Clear Claimed Marks 0.125ms
[2021-10-24T19:15:30.707+0200][gc,marking    ] GC(5) Concurrent Scan Root Regions
[2021-10-24T19:15:30.710+0200][gc,marking    ] GC(5) Concurrent Scan Root Regions 2.654ms
[2021-10-24T19:15:30.710+0200][gc,marking    ] GC(5) Concurrent Mark (97.434s)
[2021-10-24T19:15:30.710+0200][gc,marking    ] GC(5) Concurrent Mark From Roots
[2021-10-24T19:15:30.710+0200][gc,task       ] GC(5) Using 1 workers of 1 for marking
[2021-10-24T19:15:30.750+0200][gc,marking    ] GC(5) Concurrent Mark From Roots 39.817ms
[2021-10-24T19:15:30.750+0200][gc,marking    ] GC(5) Concurrent Preclean
[2021-10-24T19:15:30.750+0200][gc,marking    ] GC(5) Concurrent Preclean 0.061ms
[2021-10-24T19:15:30.750+0200][gc,marking    ] GC(5) Concurrent Mark (97.434s, 97.474s) 39.931ms
[2021-10-24T19:15:30.750+0200][gc,start      ] GC(5) Pause Remark
[2021-10-24T19:15:30.753+0200][gc,stringtable] GC(5) Cleaned string and symbol table, strings: 9902 processed, 10 removed, symbols: 80036 processed, 18 removed
[2021-10-24T19:15:30.754+0200][gc            ] GC(5) Pause Remark 143M->143M(1024M) 3.628ms
[2021-10-24T19:15:30.754+0200][gc,cpu        ] GC(5) User=0.00s Sys=0.01s Real=0.01s
[2021-10-24T19:15:30.754+0200][gc,marking    ] GC(5) Concurrent Rebuild Remembered Sets
[2021-10-24T19:15:30.764+0200][gc,marking    ] GC(5) Concurrent Rebuild Remembered Sets 10.110ms
[2021-10-24T19:15:30.770+0200][gc,start      ] GC(5) Pause Cleanup
[2021-10-24T19:15:30.772+0200][gc            ] GC(5) Pause Cleanup 143M->143M(1024M) 1.599ms
[2021-10-24T19:15:30.773+0200][gc,cpu        ] GC(5) User=0.00s Sys=0.01s Real=0.00s
[2021-10-24T19:15:30.773+0200][gc,marking    ] GC(5) Concurrent Cleanup for Next Mark
[2021-10-24T19:15:30.821+0200][gc,marking    ] GC(5) Concurrent Cleanup for Next Mark 48.141ms
[2021-10-24T19:15:30.821+0200][gc            ] GC(5) Concurrent Cycle 113.767ms
[2021-10-24T19:21:56.502+0200][gc,start      ] GC(6) Pause Young (Concurrent Start) (G1 Evacuation Pause)
[2021-10-24T19:21:56.502+0200][gc,task       ] GC(6) Using 2 workers of 2 for evacuation
[2021-10-24T19:21:56.512+0200][gc,phases     ] GC(6)   Pre Evacuate Collection Set: 0.2ms
[2021-10-24T19:21:56.512+0200][gc,phases     ] GC(6)   Evacuate Collection Set: 9.0ms
[2021-10-24T19:21:56.512+0200][gc,phases     ] GC(6)   Post Evacuate Collection Set: 0.9ms
[2021-10-24T19:21:56.512+0200][gc,phases     ] GC(6)   Other: 0.3ms
[2021-10-24T19:21:56.512+0200][gc,heap       ] GC(6) Eden regions: 49->0(47)
[2021-10-24T19:21:56.512+0200][gc,heap       ] GC(6) Survivor regions: 2->4(7)
[2021-10-24T19:21:56.512+0200][gc,heap       ] GC(6) Old regions: 13->13
[2021-10-24T19:21:56.512+0200][gc,heap       ] GC(6) Humongous regions: 129->129
[2021-10-24T19:21:56.512+0200][gc,metaspace  ] GC(6) Metaspace: 37539K->37539K(1083392K)
[2021-10-24T19:21:56.512+0200][gc            ] GC(6) Pause Young (Concurrent Start) (G1 Evacuation Pause) 190M->144M(1024M) 10.406ms
[2021-10-24T19:21:56.512+0200][gc,cpu        ] GC(6) User=0.02s Sys=0.00s Real=0.01s
[2021-10-24T19:21:56.512+0200][gc            ] GC(7) Concurrent Cycle
[2021-10-24T19:21:56.512+0200][gc,marking    ] GC(7) Concurrent Clear Claimed Marks
[2021-10-24T19:21:56.512+0200][gc,marking    ] GC(7) Concurrent Clear Claimed Marks 0.142ms
[2021-10-24T19:21:56.512+0200][gc,marking    ] GC(7) Concurrent Scan Root Regions
[2021-10-24T19:21:56.515+0200][gc,marking    ] GC(7) Concurrent Scan Root Regions 2.773ms
[2021-10-24T19:21:56.515+0200][gc,marking    ] GC(7) Concurrent Mark (483.239s)
[2021-10-24T19:21:56.515+0200][gc,marking    ] GC(7) Concurrent Mark From Roots
[2021-10-24T19:21:56.515+0200][gc,task       ] GC(7) Using 1 workers of 1 for marking
[2021-10-24T19:21:56.539+0200][gc,marking    ] GC(7) Concurrent Mark From Roots 23.667ms
[2021-10-24T19:21:56.539+0200][gc,marking    ] GC(7) Concurrent Preclean
[2021-10-24T19:21:56.539+0200][gc,marking    ] GC(7) Concurrent Preclean 0.055ms
[2021-10-24T19:21:56.539+0200][gc,marking    ] GC(7) Concurrent Mark (483.239s, 483.263s) 23.771ms
[2021-10-24T19:21:56.539+0200][gc,start      ] GC(7) Pause Remark
[2021-10-24T19:21:56.551+0200][gc,stringtable] GC(7) Cleaned string and symbol table, strings: 10902 processed, 3 removed, symbols: 81654 processed, 4 removed
[2021-10-24T19:21:56.551+0200][gc            ] GC(7) Pause Remark 144M->144M(1024M) 12.200ms
[2021-10-24T19:21:56.551+0200][gc,cpu        ] GC(7) User=0.01s Sys=0.00s Real=0.01s
[2021-10-24T19:21:56.551+0200][gc,marking    ] GC(7) Concurrent Rebuild Remembered Sets
[2021-10-24T19:21:56.559+0200][gc,marking    ] GC(7) Concurrent Rebuild Remembered Sets 7.686ms
[2021-10-24T19:21:56.559+0200][gc,start      ] GC(7) Pause Cleanup
[2021-10-24T19:21:56.559+0200][gc            ] GC(7) Pause Cleanup 144M->144M(1024M) 0.229ms
[2021-10-24T19:21:56.559+0200][gc,cpu        ] GC(7) User=0.00s Sys=0.00s Real=0.00s
[2021-10-24T19:21:56.560+0200][gc,marking    ] GC(7) Concurrent Cleanup for Next Mark
[2021-10-24T19:21:56.562+0200][gc,marking    ] GC(7) Concurrent Cleanup for Next Mark 2.559ms
[2021-10-24T19:21:56.562+0200][gc            ] GC(7) Concurrent Cycle 50.339ms
[2021-10-24T19:31:03.068+0200][gc,start      ] GC(8) Pause Young (Normal) (G1 Evacuation Pause)
[2021-10-24T19:31:03.068+0200][gc,task       ] GC(8) Using 2 workers of 2 for evacuation
[2021-10-24T19:31:03.075+0200][gc,phases     ] GC(8)   Pre Evacuate Collection Set: 0.1ms
[2021-10-24T19:31:03.075+0200][gc,phases     ] GC(8)   Evacuate Collection Set: 6.1ms
[2021-10-24T19:31:03.075+0200][gc,phases     ] GC(8)   Post Evacuate Collection Set: 0.4ms
[2021-10-24T19:31:03.075+0200][gc,phases     ] GC(8)   Other: 0.3ms
[2021-10-24T19:31:03.075+0200][gc,heap       ] GC(8) Eden regions: 47->0(48)
[2021-10-24T19:31:03.075+0200][gc,heap       ] GC(8) Survivor regions: 4->3(7)
[2021-10-24T19:31:03.075+0200][gc,heap       ] GC(8) Old regions: 13->14
[2021-10-24T19:31:03.075+0200][gc,heap       ] GC(8) Humongous regions: 129->129
[2021-10-24T19:31:03.075+0200][gc,metaspace  ] GC(8) Metaspace: 37601K->37601K(1083392K)
[2021-10-24T19:31:03.075+0200][gc            ] GC(8) Pause Young (Normal) (G1 Evacuation Pause) 191M->144M(1024M) 6.996ms
[2021-10-24T19:31:03.075+0200][gc,cpu        ] GC(8) User=0.01s Sys=0.00s Real=0.01s
[2021-10-24T19:40:55.175+0200][gc,start      ] GC(9) Pause Young (Normal) (G1 Evacuation Pause)
[2021-10-24T19:40:55.176+0200][gc,task       ] GC(9) Using 2 workers of 2 for evacuation
[2021-10-24T19:40:55.210+0200][gc,mmu        ] GC(9) MMU target violated: 21.0ms (20.0ms/21.0ms)
[2021-10-24T19:40:55.210+0200][gc,phases     ] GC(9)   Pre Evacuate Collection Set: 1.3ms
[2021-10-24T19:40:55.210+0200][gc,phases     ] GC(9)   Evacuate Collection Set: 29.9ms
[2021-10-24T19:40:55.210+0200][gc,phases     ] GC(9)   Post Evacuate Collection Set: 0.5ms
[2021-10-24T19:40:55.210+0200][gc,phases     ] GC(9)   Other: 3.0ms
[2021-10-24T19:40:55.210+0200][gc,heap       ] GC(9) Eden regions: 48->0(49)
[2021-10-24T19:40:55.210+0200][gc,heap       ] GC(9) Survivor regions: 3->2(7)
[2021-10-24T19:40:55.210+0200][gc,heap       ] GC(9) Old regions: 14->14
[2021-10-24T19:40:55.210+0200][gc,heap       ] GC(9) Humongous regions: 129->129
[2021-10-24T19:40:55.210+0200][gc,metaspace  ] GC(9) Metaspace: 37732K->37732K(1083392K)
[2021-10-24T19:40:55.210+0200][gc            ] GC(9) Pause Young (Normal) (G1 Evacuation Pause) 192M->143M(1024M) 34.701ms
[2021-10-24T19:40:55.210+0200][gc,cpu        ] GC(9) User=0.02s Sys=0.00s Real=0.03s
[2021-10-24T19:51:29.182+0200][gc,start      ] GC(10) Pause Young (Normal) (G1 Evacuation Pause)
[2021-10-24T19:51:29.183+0200][gc,task       ] GC(10) Using 2 workers of 2 for evacuation
[2021-10-24T19:51:29.189+0200][gc,phases     ] GC(10)   Pre Evacuate Collection Set: 0.1ms
[2021-10-24T19:51:29.189+0200][gc,phases     ] GC(10)   Evacuate Collection Set: 5.8ms
[2021-10-24T19:51:29.189+0200][gc,phases     ] GC(10)   Post Evacuate Collection Set: 0.6ms
[2021-10-24T19:51:29.189+0200][gc,phases     ] GC(10)   Other: 0.6ms
[2021-10-24T19:51:29.189+0200][gc,heap       ] GC(10) Eden regions: 49->0(48)
[2021-10-24T19:51:29.189+0200][gc,heap       ] GC(10) Survivor regions: 2->3(7)
[2021-10-24T19:51:29.189+0200][gc,heap       ] GC(10) Old regions: 14->14
[2021-10-24T19:51:29.189+0200][gc,heap       ] GC(10) Humongous regions: 129->129
[2021-10-24T19:51:29.189+0200][gc,metaspace  ] GC(10) Metaspace: 37767K->37767K(1083392K)
[2021-10-24T19:51:29.189+0200][gc            ] GC(10) Pause Young (Normal) (G1 Evacuation Pause) 192M->144M(1024M) 7.198ms
[2021-10-24T19:51:29.189+0200][gc,cpu        ] GC(10) User=0.02s Sys=0.00s Real=0.01s
