[2021-10-24T19:07:43.985+0200][gc,heap] Heap region size: 1M
[2021-10-24T19:07:43.994+0200][gc     ] Using G1
[2021-10-24T19:07:43.994+0200][gc,heap,coops] Heap address: 0x00000000c0000000, size: 1024 MB, Compressed Oops mode: 32-bit
[2021-10-24T19:07:43.994+0200][gc,cds       ] Mark closed archive regions in map: [0x00000000fff00000, 0x00000000fff6aff8]
[2021-10-24T19:07:43.994+0200][gc,cds       ] Mark open archive regions in map: [0x00000000ffe00000, 0x00000000ffe46ff8]
[2021-10-24T19:07:44.805+0200][gc,heap,exit ] Heap
[2021-10-24T19:07:44.805+0200][gc,heap,exit ]  garbage-first heap   total 1048576K, used 38600K [0x00000000c0000000, 0x0000000100000000)
[2021-10-24T19:07:44.805+0200][gc,heap,exit ]   region size 1024K, 38 young (38912K), 0 survivors (0K)
[2021-10-24T19:07:44.805+0200][gc,heap,exit ]  Metaspace       used 12430K, capacity 12752K, committed 12928K, reserved 1060864K
[2021-10-24T19:07:44.805+0200][gc,heap,exit ]   class space    used 1521K, capacity 1643K, committed 1664K, reserved 1048576K
