[2021-10-16T21:18:59.288+0200][gc,heap] Heap region size: 1M
[2021-10-16T21:18:59.294+0200][gc     ] Using G1
[2021-10-16T21:18:59.294+0200][gc,heap,coops] Heap address: 0x00000000e0000000, size: 512 MB, Compressed Oops mode: 32-bit
[2021-10-16T21:18:59.294+0200][gc,cds       ] Mark closed archive regions in map: [0x00000000fff00000, 0x00000000fff6aff8]
[2021-10-16T21:18:59.294+0200][gc,cds       ] Mark open archive regions in map: [0x00000000ffe00000, 0x00000000ffe46ff8]
[2021-10-16T21:20:49.126+0200][gc,start     ] GC(0) Pause Young (Normal) (G1 Evacuation Pause)
[2021-10-16T21:20:49.126+0200][gc,task      ] GC(0) Using 2 workers of 2 for evacuation
[2021-10-16T21:20:49.137+0200][gc,phases    ] GC(0)   Pre Evacuate Collection Set: 0.0ms
[2021-10-16T21:20:49.138+0200][gc,phases    ] GC(0)   Evacuate Collection Set: 10.5ms
[2021-10-16T21:20:49.138+0200][gc,phases    ] GC(0)   Post Evacuate Collection Set: 0.4ms
[2021-10-16T21:20:49.138+0200][gc,phases    ] GC(0)   Other: 0.8ms
[2021-10-16T21:20:49.138+0200][gc,heap      ] GC(0) Eden regions: 25->0(21)
[2021-10-16T21:20:49.138+0200][gc,heap      ] GC(0) Survivor regions: 0->4(4)
[2021-10-16T21:20:49.138+0200][gc,heap      ] GC(0) Old regions: 2->4
[2021-10-16T21:20:49.138+0200][gc,heap      ] GC(0) Humongous regions: 0->0
[2021-10-16T21:20:49.138+0200][gc,metaspace ] GC(0) Metaspace: 7705K->7705K(1056768K)
[2021-10-16T21:20:49.138+0200][gc           ] GC(0) Pause Young (Normal) (G1 Evacuation Pause) 25M->5M(512M) 11.790ms
[2021-10-16T21:20:49.138+0200][gc,cpu       ] GC(0) User=0.02s Sys=0.01s Real=0.01s
[2021-10-16T23:52:27.788+0200][gc,start     ] GC(1) Pause Young (Normal) (G1 Evacuation Pause)
[2021-10-16T23:52:27.790+0200][gc,task      ] GC(1) Using 2 workers of 2 for evacuation
[2021-10-16T23:52:28.238+0200][gc,mmu       ] GC(1) MMU target violated: 21.0ms (20.0ms/21.0ms)
[2021-10-16T23:52:28.238+0200][gc,phases    ] GC(1)   Pre Evacuate Collection Set: 95.8ms
[2021-10-16T23:52:28.238+0200][gc,phases    ] GC(1)   Evacuate Collection Set: 348.8ms
[2021-10-16T23:52:28.238+0200][gc,phases    ] GC(1)   Post Evacuate Collection Set: 1.1ms
[2021-10-16T23:52:28.238+0200][gc,phases    ] GC(1)   Other: 8.3ms
[2021-10-16T23:52:28.238+0200][gc,heap      ] GC(1) Eden regions: 21->0(24)
[2021-10-16T23:52:28.238+0200][gc,heap      ] GC(1) Survivor regions: 4->1(4)
[2021-10-16T23:52:28.238+0200][gc,heap      ] GC(1) Old regions: 4->8
[2021-10-16T23:52:28.238+0200][gc,heap      ] GC(1) Humongous regions: 0->0
[2021-10-16T23:52:28.238+0200][gc,metaspace ] GC(1) Metaspace: 8487K->8487K(1056768K)
[2021-10-16T23:52:28.238+0200][gc           ] GC(1) Pause Young (Normal) (G1 Evacuation Pause) 26M->6M(512M) 450.042ms
[2021-10-16T23:52:28.238+0200][gc,cpu       ] GC(1) User=0.00s Sys=0.39s Real=0.45s
[2021-10-17T00:32:14.395+0200][gc,heap,exit ] Heap
[2021-10-17T00:32:14.396+0200][gc,heap,exit ]  garbage-first heap   total 524288K, used 14197K [0x00000000e0000000, 0x0000000100000000)
[2021-10-17T00:32:14.396+0200][gc,heap,exit ]   region size 1024K, 9 young (9216K), 1 survivors (1024K)
[2021-10-17T00:32:14.396+0200][gc,heap,exit ]  Metaspace       used 8496K, capacity 8851K, committed 8960K, reserved 1056768K
[2021-10-17T00:32:14.396+0200][gc,heap,exit ]   class space    used 903K, capacity 1015K, committed 1024K, reserved 1048576K
