[2021-10-13T19:32:41.303+0200][gc,heap] Heap region size: 1M
[2021-10-13T19:32:41.308+0200][gc     ] Using G1
[2021-10-13T19:32:41.308+0200][gc,heap,coops] Heap address: 0x00000000e0000000, size: 512 MB, Compressed Oops mode: 32-bit
[2021-10-13T19:32:41.308+0200][gc,cds       ] Mark closed archive regions in map: [0x00000000fff00000, 0x00000000fff6aff8]
[2021-10-13T19:32:41.308+0200][gc,cds       ] Mark open archive regions in map: [0x00000000ffe00000, 0x00000000ffe46ff8]
[2021-10-13T19:32:56.134+0200][gc,start     ] GC(0) Pause Young (Normal) (G1 Evacuation Pause)
[2021-10-13T19:32:56.134+0200][gc,task      ] GC(0) Using 2 workers of 2 for evacuation
[2021-10-13T19:32:56.147+0200][gc,phases    ] GC(0)   Pre Evacuate Collection Set: 0.0ms
[2021-10-13T19:32:56.147+0200][gc,phases    ] GC(0)   Evacuate Collection Set: 11.9ms
[2021-10-13T19:32:56.147+0200][gc,phases    ] GC(0)   Post Evacuate Collection Set: 0.9ms
[2021-10-13T19:32:56.147+0200][gc,phases    ] GC(0)   Other: 0.4ms
[2021-10-13T19:32:56.147+0200][gc,heap      ] GC(0) Eden regions: 25->0(21)
[2021-10-13T19:32:56.147+0200][gc,heap      ] GC(0) Survivor regions: 0->4(4)
[2021-10-13T19:32:56.147+0200][gc,heap      ] GC(0) Old regions: 2->4
[2021-10-13T19:32:56.147+0200][gc,heap      ] GC(0) Humongous regions: 0->0
[2021-10-13T19:32:56.147+0200][gc,metaspace ] GC(0) Metaspace: 7660K->7660K(1056768K)
[2021-10-13T19:32:56.147+0200][gc           ] GC(0) Pause Young (Normal) (G1 Evacuation Pause) 25M->5M(512M) 13.326ms
[2021-10-13T19:32:56.147+0200][gc,cpu       ] GC(0) User=0.02s Sys=0.00s Real=0.01s
[2021-10-13T20:18:14.925+0200][gc,heap,exit ] Heap
[2021-10-13T20:18:14.925+0200][gc,heap,exit ]  garbage-first heap   total 524288K, used 11220K [0x00000000e0000000, 0x0000000100000000)
[2021-10-13T20:18:14.925+0200][gc,heap,exit ]   region size 1024K, 10 young (10240K), 4 survivors (4096K)
[2021-10-13T20:18:14.925+0200][gc,heap,exit ]  Metaspace       used 8103K, capacity 8403K, committed 8704K, reserved 1056768K
[2021-10-13T20:18:14.925+0200][gc,heap,exit ]   class space    used 903K, capacity 1015K, committed 1024K, reserved 1048576K
