[2021-10-24T18:44:21.865+0200][gc,heap] Heap region size: 1M
[2021-10-24T18:44:21.889+0200][gc     ] Using G1
[2021-10-24T18:44:21.889+0200][gc,heap,coops] Heap address: 0x00000000c0000000, size: 1024 MB, Compressed Oops mode: 32-bit
[2021-10-24T18:44:21.891+0200][gc,cds       ] Mark closed archive regions in map: [0x00000000fff00000, 0x00000000fff6aff8]
[2021-10-24T18:44:21.891+0200][gc,cds       ] Mark open archive regions in map: [0x00000000ffe00000, 0x00000000ffe46ff8]
[2021-10-24T18:44:23.876+0200][gc,start     ] GC(0) Pause Young (Normal) (G1 Evacuation Pause)
[2021-10-24T18:44:23.876+0200][gc,task      ] GC(0) Using 2 workers of 2 for evacuation
[2021-10-24T18:44:23.913+0200][gc,mmu       ] GC(0) MMU target violated: 21.0ms (20.0ms/21.0ms)
[2021-10-24T18:44:23.913+0200][gc,phases    ] GC(0)   Pre Evacuate Collection Set: 0.0ms
[2021-10-24T18:44:23.913+0200][gc,phases    ] GC(0)   Evacuate Collection Set: 36.1ms
[2021-10-24T18:44:23.913+0200][gc,phases    ] GC(0)   Post Evacuate Collection Set: 0.4ms
[2021-10-24T18:44:23.913+0200][gc,phases    ] GC(0)   Other: 0.7ms
[2021-10-24T18:44:23.913+0200][gc,heap      ] GC(0) Eden regions: 51->0(44)
[2021-10-24T18:44:23.913+0200][gc,heap      ] GC(0) Survivor regions: 0->7(7)
[2021-10-24T18:44:23.913+0200][gc,heap      ] GC(0) Old regions: 2->2
[2021-10-24T18:44:23.913+0200][gc,heap      ] GC(0) Humongous regions: 0->0
[2021-10-24T18:44:23.913+0200][gc,metaspace ] GC(0) Metaspace: 15350K->15350K(1062912K)
[2021-10-24T18:44:23.913+0200][gc           ] GC(0) Pause Young (Normal) (G1 Evacuation Pause) 51M->7M(1024M) 37.351ms
[2021-10-24T18:44:23.913+0200][gc,cpu       ] GC(0) User=0.00s Sys=0.07s Real=0.04s
[2021-10-24T18:44:24.365+0200][gc,start     ] GC(1) Pause Young (Concurrent Start) (Metadata GC Threshold)
[2021-10-24T18:44:24.365+0200][gc,task      ] GC(1) Using 2 workers of 2 for evacuation
[2021-10-24T18:44:24.414+0200][gc,mmu       ] GC(1) MMU target violated: 21.0ms (20.0ms/21.0ms)
[2021-10-24T18:44:24.414+0200][gc,phases    ] GC(1)   Pre Evacuate Collection Set: 0.1ms
[2021-10-24T18:44:24.414+0200][gc,phases    ] GC(1)   Evacuate Collection Set: 48.7ms
[2021-10-24T18:44:24.414+0200][gc,phases    ] GC(1)   Post Evacuate Collection Set: 0.3ms
[2021-10-24T18:44:24.414+0200][gc,phases    ] GC(1)   Other: 0.5ms
[2021-10-24T18:44:24.414+0200][gc,heap      ] GC(1) Eden regions: 21->0(50)
[2021-10-24T18:44:24.414+0200][gc,heap      ] GC(1) Survivor regions: 7->1(7)
[2021-10-24T18:44:24.414+0200][gc,heap      ] GC(1) Old regions: 2->9
[2021-10-24T18:44:24.414+0200][gc,heap      ] GC(1) Humongous regions: 0->0
[2021-10-24T18:44:24.414+0200][gc,metaspace ] GC(1) Metaspace: 20587K->20587K(1067008K)
[2021-10-24T18:44:24.414+0200][gc           ] GC(1) Pause Young (Concurrent Start) (Metadata GC Threshold) 28M->8M(1024M) 49.623ms
[2021-10-24T18:44:24.415+0200][gc,cpu       ] GC(1) User=0.00s Sys=0.08s Real=0.06s
[2021-10-24T18:44:24.415+0200][gc           ] GC(2) Concurrent Cycle
[2021-10-24T18:44:24.415+0200][gc,marking   ] GC(2) Concurrent Clear Claimed Marks
[2021-10-24T18:44:24.415+0200][gc,marking   ] GC(2) Concurrent Clear Claimed Marks 0.043ms
[2021-10-24T18:44:24.415+0200][gc,marking   ] GC(2) Concurrent Scan Root Regions
[2021-10-24T18:44:24.417+0200][gc,marking   ] GC(2) Concurrent Scan Root Regions 2.235ms
[2021-10-24T18:44:24.417+0200][gc,marking   ] GC(2) Concurrent Mark (2.556s)
[2021-10-24T18:44:24.417+0200][gc,marking   ] GC(2) Concurrent Mark From Roots
[2021-10-24T18:44:24.417+0200][gc,task      ] GC(2) Using 1 workers of 1 for marking
[2021-10-24T18:44:24.425+0200][gc,marking   ] GC(2) Concurrent Mark From Roots 8.236ms
[2021-10-24T18:44:24.425+0200][gc,marking   ] GC(2) Concurrent Preclean
[2021-10-24T18:44:24.426+0200][gc,marking   ] GC(2) Concurrent Preclean 0.328ms
[2021-10-24T18:44:24.426+0200][gc,marking   ] GC(2) Concurrent Mark (2.556s, 2.564s) 8.646ms
[2021-10-24T18:44:24.426+0200][gc,start     ] GC(2) Pause Remark
[2021-10-24T18:44:24.428+0200][gc,stringtable] GC(2) Cleaned string and symbol table, strings: 5042 processed, 0 removed, symbols: 50645 processed, 58 removed
[2021-10-24T18:44:24.429+0200][gc            ] GC(2) Pause Remark 8M->8M(1024M) 2.878ms
[2021-10-24T18:44:24.429+0200][gc,cpu        ] GC(2) User=0.00s Sys=0.00s Real=0.00s
[2021-10-24T18:44:24.429+0200][gc,marking    ] GC(2) Concurrent Rebuild Remembered Sets
[2021-10-24T18:44:24.441+0200][gc,marking    ] GC(2) Concurrent Rebuild Remembered Sets 12.383ms
[2021-10-24T18:44:24.443+0200][gc,start      ] GC(2) Pause Cleanup
[2021-10-24T18:44:24.443+0200][gc            ] GC(2) Pause Cleanup 8M->8M(1024M) 0.498ms
[2021-10-24T18:44:24.443+0200][gc,cpu        ] GC(2) User=0.00s Sys=0.00s Real=0.00s
[2021-10-24T18:44:24.443+0200][gc,marking    ] GC(2) Concurrent Cleanup for Next Mark
[2021-10-24T18:44:24.611+0200][gc,marking    ] GC(2) Concurrent Cleanup for Next Mark 167.920ms
[2021-10-24T18:44:24.611+0200][gc            ] GC(2) Concurrent Cycle 196.761ms
[2021-10-24T18:44:26.573+0200][gc,heap,exit  ] Heap
[2021-10-24T18:44:26.573+0200][gc,heap,exit  ]  garbage-first heap   total 1048576K, used 13473K [0x00000000c0000000, 0x0000000100000000)
[2021-10-24T18:44:26.574+0200][gc,heap,exit  ]   region size 1024K, 7 young (7168K), 1 survivors (1024K)
[2021-10-24T18:44:26.574+0200][gc,heap,exit  ]  Metaspace       used 21472K, capacity 22168K, committed 22268K, reserved 1069056K
[2021-10-24T18:44:26.574+0200][gc,heap,exit  ]   class space    used 2970K, capacity 3283K, committed 3324K, reserved 1048576K
