[2021-10-24T17:18:38.074+0200][gc,heap] Heap region size: 1M
[2021-10-24T17:18:38.083+0200][gc     ] Using G1
[2021-10-24T17:18:38.083+0200][gc,heap,coops] Heap address: 0x00000000c0000000, size: 1024 MB, Compressed Oops mode: 32-bit
[2021-10-24T17:18:38.083+0200][gc,cds       ] Mark closed archive regions in map: [0x00000000fff00000, 0x00000000fff6aff8]
[2021-10-24T17:18:38.083+0200][gc,cds       ] Mark open archive regions in map: [0x00000000ffe00000, 0x00000000ffe46ff8]
[2021-10-24T17:18:39.798+0200][gc,start     ] GC(0) Pause Young (Normal) (G1 Evacuation Pause)
[2021-10-24T17:18:39.798+0200][gc,task      ] GC(0) Using 2 workers of 2 for evacuation
[2021-10-24T17:18:39.835+0200][gc,mmu       ] GC(0) MMU target violated: 21.0ms (20.0ms/21.0ms)
[2021-10-24T17:18:39.835+0200][gc,phases    ] GC(0)   Pre Evacuate Collection Set: 0.0ms
[2021-10-24T17:18:39.835+0200][gc,phases    ] GC(0)   Evacuate Collection Set: 36.2ms
[2021-10-24T17:18:39.835+0200][gc,phases    ] GC(0)   Post Evacuate Collection Set: 0.7ms
[2021-10-24T17:18:39.835+0200][gc,phases    ] GC(0)   Other: 0.5ms
[2021-10-24T17:18:39.835+0200][gc,heap      ] GC(0) Eden regions: 51->0(44)
[2021-10-24T17:18:39.835+0200][gc,heap      ] GC(0) Survivor regions: 0->7(7)
[2021-10-24T17:18:39.835+0200][gc,heap      ] GC(0) Old regions: 2->2
[2021-10-24T17:18:39.835+0200][gc,heap      ] GC(0) Humongous regions: 0->0
[2021-10-24T17:18:39.835+0200][gc,metaspace ] GC(0) Metaspace: 15244K->15244K(1062912K)
[2021-10-24T17:18:39.835+0200][gc           ] GC(0) Pause Young (Normal) (G1 Evacuation Pause) 51M->7M(1024M) 37.508ms
[2021-10-24T17:18:39.835+0200][gc,cpu       ] GC(0) User=0.00s Sys=0.06s Real=0.04s
[2021-10-24T17:18:40.410+0200][gc,start     ] GC(1) Pause Young (Concurrent Start) (Metadata GC Threshold)
[2021-10-24T17:18:40.410+0200][gc,task      ] GC(1) Using 2 workers of 2 for evacuation
[2021-10-24T17:18:40.457+0200][gc,mmu       ] GC(1) MMU target violated: 21.0ms (20.0ms/21.0ms)
[2021-10-24T17:18:40.457+0200][gc,phases    ] GC(1)   Pre Evacuate Collection Set: 0.1ms
[2021-10-24T17:18:40.457+0200][gc,phases    ] GC(1)   Evacuate Collection Set: 45.0ms
[2021-10-24T17:18:40.457+0200][gc,phases    ] GC(1)   Post Evacuate Collection Set: 1.7ms
[2021-10-24T17:18:40.457+0200][gc,phases    ] GC(1)   Other: 0.8ms
[2021-10-24T17:18:40.457+0200][gc,heap      ] GC(1) Eden regions: 22->0(50)
[2021-10-24T17:18:40.457+0200][gc,heap      ] GC(1) Survivor regions: 7->1(7)
[2021-10-24T17:18:40.457+0200][gc,heap      ] GC(1) Old regions: 2->9
[2021-10-24T17:18:40.457+0200][gc,heap      ] GC(1) Humongous regions: 0->0
[2021-10-24T17:18:40.458+0200][gc,metaspace ] GC(1) Metaspace: 20642K->20642K(1067008K)
[2021-10-24T17:18:40.458+0200][gc           ] GC(1) Pause Young (Concurrent Start) (Metadata GC Threshold) 29M->8M(1024M) 47.655ms
[2021-10-24T17:18:40.458+0200][gc,cpu       ] GC(1) User=0.00s Sys=0.09s Real=0.04s
[2021-10-24T17:18:40.458+0200][gc           ] GC(2) Concurrent Cycle
[2021-10-24T17:18:40.458+0200][gc,marking   ] GC(2) Concurrent Clear Claimed Marks
[2021-10-24T17:18:40.458+0200][gc,marking   ] GC(2) Concurrent Clear Claimed Marks 0.181ms
[2021-10-24T17:18:40.458+0200][gc,marking   ] GC(2) Concurrent Scan Root Regions
[2021-10-24T17:18:40.459+0200][gc,marking   ] GC(2) Concurrent Scan Root Regions 0.760ms
[2021-10-24T17:18:40.459+0200][gc,marking   ] GC(2) Concurrent Mark (2.388s)
[2021-10-24T17:18:40.459+0200][gc,marking   ] GC(2) Concurrent Mark From Roots
[2021-10-24T17:18:40.459+0200][gc,task      ] GC(2) Using 1 workers of 1 for marking
[2021-10-24T17:18:40.480+0200][gc,marking   ] GC(2) Concurrent Mark From Roots 21.053ms
[2021-10-24T17:18:40.480+0200][gc,marking   ] GC(2) Concurrent Preclean
[2021-10-24T17:18:40.480+0200][gc,marking   ] GC(2) Concurrent Preclean 0.105ms
[2021-10-24T17:18:40.480+0200][gc,marking   ] GC(2) Concurrent Mark (2.388s, 2.410s) 21.220ms
[2021-10-24T17:18:40.481+0200][gc,start     ] GC(2) Pause Remark
[2021-10-24T17:18:40.484+0200][gc,stringtable] GC(2) Cleaned string and symbol table, strings: 5049 processed, 0 removed, symbols: 50784 processed, 59 removed
[2021-10-24T17:18:40.484+0200][gc            ] GC(2) Pause Remark 8M->8M(1024M) 2.909ms
[2021-10-24T17:18:40.484+0200][gc,cpu        ] GC(2) User=0.00s Sys=0.01s Real=0.01s
[2021-10-24T17:18:40.484+0200][gc,marking    ] GC(2) Concurrent Rebuild Remembered Sets
[2021-10-24T17:18:40.489+0200][gc,marking    ] GC(2) Concurrent Rebuild Remembered Sets 4.597ms
[2021-10-24T17:18:40.489+0200][gc,start      ] GC(2) Pause Cleanup
[2021-10-24T17:18:40.489+0200][gc            ] GC(2) Pause Cleanup 8M->8M(1024M) 0.403ms
[2021-10-24T17:18:40.489+0200][gc,cpu        ] GC(2) User=0.00s Sys=0.00s Real=0.00s
[2021-10-24T17:18:40.489+0200][gc,marking    ] GC(2) Concurrent Cleanup for Next Mark
[2021-10-24T17:18:40.573+0200][gc,marking    ] GC(2) Concurrent Cleanup for Next Mark 83.904ms
[2021-10-24T17:18:40.573+0200][gc            ] GC(2) Concurrent Cycle 115.108ms
[2021-10-24T17:18:41.601+0200][gc,start      ] GC(3) Pause Young (Normal) (G1 Evacuation Pause)
[2021-10-24T17:18:41.601+0200][gc,task       ] GC(3) Using 2 workers of 2 for evacuation
[2021-10-24T17:18:41.612+0200][gc,phases     ] GC(3)   Pre Evacuate Collection Set: 0.0ms
[2021-10-24T17:18:41.612+0200][gc,phases     ] GC(3)   Evacuate Collection Set: 7.2ms
[2021-10-24T17:18:41.612+0200][gc,phases     ] GC(3)   Post Evacuate Collection Set: 2.6ms
[2021-10-24T17:18:41.612+0200][gc,phases     ] GC(3)   Other: 0.4ms
[2021-10-24T17:18:41.612+0200][gc,heap       ] GC(3) Eden regions: 50->0(46)
[2021-10-24T17:18:41.612+0200][gc,heap       ] GC(3) Survivor regions: 1->5(7)
[2021-10-24T17:18:41.612+0200][gc,heap       ] GC(3) Old regions: 9->9
[2021-10-24T17:18:41.612+0200][gc,heap       ] GC(3) Humongous regions: 129->129
[2021-10-24T17:18:41.612+0200][gc,metaspace  ] GC(3) Metaspace: 29303K->29303K(1075200K)
[2021-10-24T17:18:41.612+0200][gc            ] GC(3) Pause Young (Normal) (G1 Evacuation Pause) 187M->140M(1024M) 10.604ms
[2021-10-24T17:18:41.612+0200][gc,cpu        ] GC(3) User=0.02s Sys=0.00s Real=0.02s
[2021-10-24T17:18:42.440+0200][gc,start      ] GC(4) Pause Young (Concurrent Start) (Metadata GC Threshold)
[2021-10-24T17:18:42.440+0200][gc,task       ] GC(4) Using 2 workers of 2 for evacuation
[2021-10-24T17:18:42.460+0200][gc,phases     ] GC(4)   Pre Evacuate Collection Set: 0.1ms
[2021-10-24T17:18:42.460+0200][gc,phases     ] GC(4)   Evacuate Collection Set: 18.6ms
[2021-10-24T17:18:42.460+0200][gc,phases     ] GC(4)   Post Evacuate Collection Set: 0.4ms
[2021-10-24T17:18:42.460+0200][gc,phases     ] GC(4)   Other: 0.4ms
[2021-10-24T17:18:42.460+0200][gc,heap       ] GC(4) Eden regions: 26->0(49)
[2021-10-24T17:18:42.460+0200][gc,heap       ] GC(4) Survivor regions: 5->2(7)
[2021-10-24T17:18:42.460+0200][gc,heap       ] GC(4) Old regions: 9->13
[2021-10-24T17:18:42.460+0200][gc,heap       ] GC(4) Humongous regions: 129->129
[2021-10-24T17:18:42.460+0200][gc,metaspace  ] GC(4) Metaspace: 34658K->34658K(1081344K)
[2021-10-24T17:18:42.460+0200][gc            ] GC(4) Pause Young (Concurrent Start) (Metadata GC Threshold) 166M->141M(1024M) 19.562ms
[2021-10-24T17:18:42.460+0200][gc,cpu        ] GC(4) User=0.01s Sys=0.03s Real=0.02s
[2021-10-24T17:18:42.460+0200][gc            ] GC(5) Concurrent Cycle
[2021-10-24T17:18:42.460+0200][gc,marking    ] GC(5) Concurrent Clear Claimed Marks
[2021-10-24T17:18:42.460+0200][gc,marking    ] GC(5) Concurrent Clear Claimed Marks 0.116ms
[2021-10-24T17:18:42.460+0200][gc,marking    ] GC(5) Concurrent Scan Root Regions
[2021-10-24T17:18:42.466+0200][gc,marking    ] GC(5) Concurrent Scan Root Regions 5.541ms
[2021-10-24T17:18:42.466+0200][gc,marking    ] GC(5) Concurrent Mark (4.395s)
[2021-10-24T17:18:42.466+0200][gc,marking    ] GC(5) Concurrent Mark From Roots
[2021-10-24T17:18:42.466+0200][gc,task       ] GC(5) Using 1 workers of 1 for marking
[2021-10-24T17:18:42.495+0200][gc,marking    ] GC(5) Concurrent Mark From Roots 29.319ms
[2021-10-24T17:18:42.495+0200][gc,marking    ] GC(5) Concurrent Preclean
[2021-10-24T17:18:42.495+0200][gc,marking    ] GC(5) Concurrent Preclean 0.066ms
[2021-10-24T17:18:42.495+0200][gc,marking    ] GC(5) Concurrent Mark (4.395s, 4.424s) 29.444ms
[2021-10-24T17:18:42.495+0200][gc,start      ] GC(5) Pause Remark
[2021-10-24T17:18:42.498+0200][gc,stringtable] GC(5) Cleaned string and symbol table, strings: 10371 processed, 12 removed, symbols: 84061 processed, 17 removed
[2021-10-24T17:18:42.498+0200][gc            ] GC(5) Pause Remark 143M->143M(1024M) 3.086ms
[2021-10-24T17:18:42.498+0200][gc,cpu        ] GC(5) User=0.00s Sys=0.00s Real=0.00s
[2021-10-24T17:18:42.498+0200][gc,marking    ] GC(5) Concurrent Rebuild Remembered Sets
[2021-10-24T17:18:42.508+0200][gc,marking    ] GC(5) Concurrent Rebuild Remembered Sets 9.688ms
[2021-10-24T17:18:42.509+0200][gc,start      ] GC(5) Pause Cleanup
[2021-10-24T17:18:42.509+0200][gc            ] GC(5) Pause Cleanup 143M->143M(1024M) 0.305ms
[2021-10-24T17:18:42.509+0200][gc,cpu        ] GC(5) User=0.00s Sys=0.00s Real=0.00s
[2021-10-24T17:18:42.509+0200][gc,marking    ] GC(5) Concurrent Cleanup for Next Mark
[2021-10-24T17:18:42.664+0200][gc,marking    ] GC(5) Concurrent Cleanup for Next Mark 154.812ms
[2021-10-24T17:18:42.664+0200][gc            ] GC(5) Concurrent Cycle 204.033ms
[2021-10-24T17:28:23.874+0200][gc,start      ] GC(6) Pause Young (Normal) (G1 Evacuation Pause)
[2021-10-24T17:28:23.876+0200][gc,task       ] GC(6) Using 2 workers of 2 for evacuation
[2021-10-24T17:28:23.922+0200][gc,mmu        ] GC(6) MMU target violated: 21.0ms (20.0ms/21.0ms)
[2021-10-24T17:28:23.923+0200][gc,phases     ] GC(6)   Pre Evacuate Collection Set: 1.2ms
[2021-10-24T17:28:23.923+0200][gc,phases     ] GC(6)   Evacuate Collection Set: 43.7ms
[2021-10-24T17:28:23.923+0200][gc,phases     ] GC(6)   Post Evacuate Collection Set: 1.0ms
[2021-10-24T17:28:23.923+0200][gc,phases     ] GC(6)   Other: 2.5ms
[2021-10-24T17:28:23.923+0200][gc,heap       ] GC(6) Eden regions: 49->0(47)
[2021-10-24T17:28:23.923+0200][gc,heap       ] GC(6) Survivor regions: 2->4(7)
[2021-10-24T17:28:23.923+0200][gc,heap       ] GC(6) Old regions: 13->13
[2021-10-24T17:28:23.923+0200][gc,heap       ] GC(6) Humongous regions: 129->129
[2021-10-24T17:28:23.923+0200][gc,metaspace  ] GC(6) Metaspace: 40269K->40269K(1085440K)
[2021-10-24T17:28:23.923+0200][gc            ] GC(6) Pause Young (Normal) (G1 Evacuation Pause) 190M->143M(1024M) 48.423ms
[2021-10-24T17:28:23.923+0200][gc,cpu        ] GC(6) User=0.06s Sys=0.00s Real=0.05s
[2021-10-24T17:36:23.863+0200][gc,start      ] GC(7) Pause Young (Normal) (G1 Evacuation Pause)
[2021-10-24T17:36:23.863+0200][gc,task       ] GC(7) Using 2 workers of 2 for evacuation
[2021-10-24T17:36:23.874+0200][gc,phases     ] GC(7)   Pre Evacuate Collection Set: 0.1ms
[2021-10-24T17:36:23.874+0200][gc,phases     ] GC(7)   Evacuate Collection Set: 10.1ms
[2021-10-24T17:36:23.874+0200][gc,phases     ] GC(7)   Post Evacuate Collection Set: 0.6ms
[2021-10-24T17:36:23.874+0200][gc,phases     ] GC(7)   Other: 0.2ms
[2021-10-24T17:36:23.874+0200][gc,heap       ] GC(7) Eden regions: 47->0(47)
[2021-10-24T17:36:23.874+0200][gc,heap       ] GC(7) Survivor regions: 4->4(7)
[2021-10-24T17:36:23.874+0200][gc,heap       ] GC(7) Old regions: 13->14
[2021-10-24T17:36:23.874+0200][gc,heap       ] GC(7) Humongous regions: 129->129
[2021-10-24T17:36:23.874+0200][gc,metaspace  ] GC(7) Metaspace: 40394K->40394K(1085440K)
[2021-10-24T17:36:23.874+0200][gc            ] GC(7) Pause Young (Normal) (G1 Evacuation Pause) 190M->145M(1024M) 11.191ms
[2021-10-24T17:36:23.874+0200][gc,cpu        ] GC(7) User=0.01s Sys=0.01s Real=0.01s
[2021-10-24T17:44:46.918+0200][gc,start      ] GC(8) Pause Young (Normal) (G1 Evacuation Pause)
[2021-10-24T17:44:46.919+0200][gc,task       ] GC(8) Using 2 workers of 2 for evacuation
[2021-10-24T17:44:46.926+0200][gc,phases     ] GC(8)   Pre Evacuate Collection Set: 0.1ms
[2021-10-24T17:44:46.926+0200][gc,phases     ] GC(8)   Evacuate Collection Set: 6.1ms
[2021-10-24T17:44:46.926+0200][gc,phases     ] GC(8)   Post Evacuate Collection Set: 0.8ms
[2021-10-24T17:44:46.926+0200][gc,phases     ] GC(8)   Other: 0.9ms
[2021-10-24T17:44:46.926+0200][gc,heap       ] GC(8) Eden regions: 47->0(47)
[2021-10-24T17:44:46.926+0200][gc,heap       ] GC(8) Survivor regions: 4->4(7)
[2021-10-24T17:44:46.926+0200][gc,heap       ] GC(8) Old regions: 14->14
[2021-10-24T17:44:46.926+0200][gc,heap       ] GC(8) Humongous regions: 129->129
[2021-10-24T17:44:46.926+0200][gc,metaspace  ] GC(8) Metaspace: 40540K->40540K(1085440K)
[2021-10-24T17:44:46.927+0200][gc            ] GC(8) Pause Young (Normal) (G1 Evacuation Pause) 192M->145M(1024M) 8.128ms
[2021-10-24T17:44:46.927+0200][gc,cpu        ] GC(8) User=0.01s Sys=0.00s Real=0.01s
[2021-10-24T17:53:18.912+0200][gc,start      ] GC(9) Pause Young (Normal) (G1 Evacuation Pause)
[2021-10-24T17:53:18.912+0200][gc,task       ] GC(9) Using 2 workers of 2 for evacuation
[2021-10-24T17:53:18.920+0200][gc,phases     ] GC(9)   Pre Evacuate Collection Set: 0.3ms
[2021-10-24T17:53:18.920+0200][gc,phases     ] GC(9)   Evacuate Collection Set: 7.0ms
[2021-10-24T17:53:18.920+0200][gc,phases     ] GC(9)   Post Evacuate Collection Set: 0.5ms
[2021-10-24T17:53:18.920+0200][gc,phases     ] GC(9)   Other: 0.6ms
[2021-10-24T17:53:18.920+0200][gc,heap       ] GC(9) Eden regions: 47->0(48)
[2021-10-24T17:53:18.920+0200][gc,heap       ] GC(9) Survivor regions: 4->3(7)
[2021-10-24T17:53:18.920+0200][gc,heap       ] GC(9) Old regions: 14->15
[2021-10-24T17:53:18.920+0200][gc,heap       ] GC(9) Humongous regions: 129->129
[2021-10-24T17:53:18.920+0200][gc,metaspace  ] GC(9) Metaspace: 40605K->40605K(1085440K)
[2021-10-24T17:53:18.920+0200][gc            ] GC(9) Pause Young (Normal) (G1 Evacuation Pause) 192M->145M(1024M) 8.509ms
[2021-10-24T17:53:18.920+0200][gc,cpu        ] GC(9) User=0.01s Sys=0.00s Real=0.00s
[2021-10-24T17:58:14.477+0200][gc,heap,exit  ] Heap
[2021-10-24T17:58:14.477+0200][gc,heap,exit  ]  garbage-first heap   total 1048576K, used 183908K [0x00000000c0000000, 0x0000000100000000)
[2021-10-24T17:58:14.477+0200][gc,heap,exit  ]   region size 1024K, 39 young (39936K), 3 survivors (3072K)
[2021-10-24T17:58:14.477+0200][gc,heap,exit  ]  Metaspace       used 41525K, capacity 43651K, committed 43900K, reserved 1087488K
[2021-10-24T17:58:14.477+0200][gc,heap,exit  ]   class space    used 5448K, capacity 6440K, committed 6524K, reserved 1048576K
