[2021-10-24T18:43:59.153+0200][gc,heap] Heap region size: 1M
[2021-10-24T18:43:59.161+0200][gc     ] Using G1
[2021-10-24T18:43:59.161+0200][gc,heap,coops] Heap address: 0x00000000c0000000, size: 1024 MB, Compressed Oops mode: 32-bit
[2021-10-24T18:43:59.162+0200][gc,cds       ] Mark closed archive regions in map: [0x00000000fff00000, 0x00000000fff6aff8]
[2021-10-24T18:43:59.162+0200][gc,cds       ] Mark open archive regions in map: [0x00000000ffe00000, 0x00000000ffe46ff8]
[2021-10-24T18:44:00.581+0200][gc,start     ] GC(0) Pause Young (Normal) (G1 Evacuation Pause)
[2021-10-24T18:44:00.582+0200][gc,task      ] GC(0) Using 2 workers of 2 for evacuation
[2021-10-24T18:44:00.596+0200][gc,phases    ] GC(0)   Pre Evacuate Collection Set: 0.0ms
[2021-10-24T18:44:00.596+0200][gc,phases    ] GC(0)   Evacuate Collection Set: 13.7ms
[2021-10-24T18:44:00.596+0200][gc,phases    ] GC(0)   Post Evacuate Collection Set: 0.4ms
[2021-10-24T18:44:00.596+0200][gc,phases    ] GC(0)   Other: 1.0ms
[2021-10-24T18:44:00.596+0200][gc,heap      ] GC(0) Eden regions: 51->0(44)
[2021-10-24T18:44:00.596+0200][gc,heap      ] GC(0) Survivor regions: 0->7(7)
[2021-10-24T18:44:00.596+0200][gc,heap      ] GC(0) Old regions: 2->2
[2021-10-24T18:44:00.596+0200][gc,heap      ] GC(0) Humongous regions: 0->0
[2021-10-24T18:44:00.596+0200][gc,metaspace ] GC(0) Metaspace: 15336K->15336K(1062912K)
[2021-10-24T18:44:00.596+0200][gc           ] GC(0) Pause Young (Normal) (G1 Evacuation Pause) 51M->7M(1024M) 15.158ms
[2021-10-24T18:44:00.596+0200][gc,cpu       ] GC(0) User=0.02s Sys=0.00s Real=0.02s
[2021-10-24T18:44:01.106+0200][gc,start     ] GC(1) Pause Young (Concurrent Start) (Metadata GC Threshold)
[2021-10-24T18:44:01.106+0200][gc,task      ] GC(1) Using 2 workers of 2 for evacuation
[2021-10-24T18:44:01.117+0200][gc,phases    ] GC(1)   Pre Evacuate Collection Set: 0.1ms
[2021-10-24T18:44:01.117+0200][gc,phases    ] GC(1)   Evacuate Collection Set: 11.0ms
[2021-10-24T18:44:01.117+0200][gc,phases    ] GC(1)   Post Evacuate Collection Set: 0.3ms
[2021-10-24T18:44:01.117+0200][gc,phases    ] GC(1)   Other: 0.3ms
[2021-10-24T18:44:01.117+0200][gc,heap      ] GC(1) Eden regions: 22->0(50)
[2021-10-24T18:44:01.117+0200][gc,heap      ] GC(1) Survivor regions: 7->1(7)
[2021-10-24T18:44:01.117+0200][gc,heap      ] GC(1) Old regions: 2->9
[2021-10-24T18:44:01.117+0200][gc,heap      ] GC(1) Humongous regions: 0->0
[2021-10-24T18:44:01.117+0200][gc,metaspace ] GC(1) Metaspace: 20645K->20645K(1067008K)
[2021-10-24T18:44:01.117+0200][gc           ] GC(1) Pause Young (Concurrent Start) (Metadata GC Threshold) 28M->8M(1024M) 11.747ms
[2021-10-24T18:44:01.117+0200][gc,cpu       ] GC(1) User=0.00s Sys=0.01s Real=0.01s
[2021-10-24T18:44:01.117+0200][gc           ] GC(2) Concurrent Cycle
[2021-10-24T18:44:01.118+0200][gc,marking   ] GC(2) Concurrent Clear Claimed Marks
[2021-10-24T18:44:01.118+0200][gc,marking   ] GC(2) Concurrent Clear Claimed Marks 0.060ms
[2021-10-24T18:44:01.118+0200][gc,marking   ] GC(2) Concurrent Scan Root Regions
[2021-10-24T18:44:01.118+0200][gc,marking   ] GC(2) Concurrent Scan Root Regions 0.602ms
[2021-10-24T18:44:01.118+0200][gc,marking   ] GC(2) Concurrent Mark (1.968s)
[2021-10-24T18:44:01.118+0200][gc,marking   ] GC(2) Concurrent Mark From Roots
[2021-10-24T18:44:01.118+0200][gc,task      ] GC(2) Using 1 workers of 1 for marking
[2021-10-24T18:44:01.130+0200][gc,marking   ] GC(2) Concurrent Mark From Roots 11.324ms
[2021-10-24T18:44:01.130+0200][gc,marking   ] GC(2) Concurrent Preclean
[2021-10-24T18:44:01.130+0200][gc,marking   ] GC(2) Concurrent Preclean 0.068ms
[2021-10-24T18:44:01.130+0200][gc,marking   ] GC(2) Concurrent Mark (1.968s, 1.979s) 11.438ms
[2021-10-24T18:44:01.130+0200][gc,start     ] GC(2) Pause Remark
[2021-10-24T18:44:01.135+0200][gc,stringtable] GC(2) Cleaned string and symbol table, strings: 5112 processed, 0 removed, symbols: 51046 processed, 60 removed
[2021-10-24T18:44:01.137+0200][gc            ] GC(2) Pause Remark 8M->8M(1024M) 6.995ms
[2021-10-24T18:44:01.137+0200][gc,cpu        ] GC(2) User=0.01s Sys=0.00s Real=0.01s
[2021-10-24T18:44:01.138+0200][gc,marking    ] GC(2) Concurrent Rebuild Remembered Sets
[2021-10-24T18:44:01.143+0200][gc,marking    ] GC(2) Concurrent Rebuild Remembered Sets 5.753ms
[2021-10-24T18:44:01.143+0200][gc,start      ] GC(2) Pause Cleanup
[2021-10-24T18:44:01.144+0200][gc            ] GC(2) Pause Cleanup 8M->8M(1024M) 0.233ms
[2021-10-24T18:44:01.144+0200][gc,cpu        ] GC(2) User=0.00s Sys=0.00s Real=0.00s
[2021-10-24T18:44:01.144+0200][gc,marking    ] GC(2) Concurrent Cleanup for Next Mark
[2021-10-24T18:44:01.152+0200][gc,marking    ] GC(2) Concurrent Cleanup for Next Mark 8.699ms
[2021-10-24T18:44:01.152+0200][gc            ] GC(2) Concurrent Cycle 34.978ms
[2021-10-24T18:44:02.770+0200][gc,start      ] GC(3) Pause Young (Normal) (G1 Evacuation Pause)
[2021-10-24T18:44:02.770+0200][gc,task       ] GC(3) Using 2 workers of 2 for evacuation
[2021-10-24T18:44:02.800+0200][gc,mmu        ] GC(3) MMU target violated: 21.0ms (20.0ms/21.0ms)
[2021-10-24T18:44:02.801+0200][gc,phases     ] GC(3)   Pre Evacuate Collection Set: 0.0ms
[2021-10-24T18:44:02.801+0200][gc,phases     ] GC(3)   Evacuate Collection Set: 24.7ms
[2021-10-24T18:44:02.801+0200][gc,phases     ] GC(3)   Post Evacuate Collection Set: 5.3ms
[2021-10-24T18:44:02.801+0200][gc,phases     ] GC(3)   Other: 0.8ms
[2021-10-24T18:44:02.801+0200][gc,heap       ] GC(3) Eden regions: 50->0(46)
[2021-10-24T18:44:02.801+0200][gc,heap       ] GC(3) Survivor regions: 1->5(7)
[2021-10-24T18:44:02.801+0200][gc,heap       ] GC(3) Old regions: 9->9
[2021-10-24T18:44:02.801+0200][gc,heap       ] GC(3) Humongous regions: 129->129
[2021-10-24T18:44:02.801+0200][gc,metaspace  ] GC(3) Metaspace: 29370K->29370K(1075200K)
[2021-10-24T18:44:02.801+0200][gc            ] GC(3) Pause Young (Normal) (G1 Evacuation Pause) 187M->140M(1024M) 30.999ms
[2021-10-24T18:44:02.801+0200][gc,cpu        ] GC(3) User=0.04s Sys=0.01s Real=0.03s
[2021-10-24T18:44:03.441+0200][gc,start      ] GC(4) Pause Young (Concurrent Start) (Metadata GC Threshold)
[2021-10-24T18:44:03.441+0200][gc,task       ] GC(4) Using 2 workers of 2 for evacuation
[2021-10-24T18:44:03.473+0200][gc,mmu        ] GC(4) MMU target violated: 21.0ms (20.0ms/21.0ms)
[2021-10-24T18:44:03.473+0200][gc,phases     ] GC(4)   Pre Evacuate Collection Set: 0.1ms
[2021-10-24T18:44:03.473+0200][gc,phases     ] GC(4)   Evacuate Collection Set: 30.9ms
[2021-10-24T18:44:03.473+0200][gc,phases     ] GC(4)   Post Evacuate Collection Set: 0.3ms
[2021-10-24T18:44:03.473+0200][gc,phases     ] GC(4)   Other: 0.2ms
[2021-10-24T18:44:03.473+0200][gc,heap       ] GC(4) Eden regions: 26->0(49)
[2021-10-24T18:44:03.473+0200][gc,heap       ] GC(4) Survivor regions: 5->2(7)
[2021-10-24T18:44:03.473+0200][gc,heap       ] GC(4) Old regions: 9->13
[2021-10-24T18:44:03.473+0200][gc,heap       ] GC(4) Humongous regions: 129->129
[2021-10-24T18:44:03.473+0200][gc,metaspace  ] GC(4) Metaspace: 34696K->34696K(1081344K)
[2021-10-24T18:44:03.473+0200][gc            ] GC(4) Pause Young (Concurrent Start) (Metadata GC Threshold) 165M->141M(1024M) 31.576ms
[2021-10-24T18:44:03.473+0200][gc,cpu        ] GC(4) User=0.01s Sys=0.05s Real=0.03s
[2021-10-24T18:44:03.473+0200][gc            ] GC(5) Concurrent Cycle
[2021-10-24T18:44:03.473+0200][gc,marking    ] GC(5) Concurrent Clear Claimed Marks
[2021-10-24T18:44:03.473+0200][gc,marking    ] GC(5) Concurrent Clear Claimed Marks 0.135ms
[2021-10-24T18:44:03.473+0200][gc,marking    ] GC(5) Concurrent Scan Root Regions
[2021-10-24T18:44:03.479+0200][gc,marking    ] GC(5) Concurrent Scan Root Regions 6.334ms
[2021-10-24T18:44:03.479+0200][gc,marking    ] GC(5) Concurrent Mark (4.329s)
[2021-10-24T18:44:03.479+0200][gc,marking    ] GC(5) Concurrent Mark From Roots
[2021-10-24T18:44:03.479+0200][gc,task       ] GC(5) Using 1 workers of 1 for marking
[2021-10-24T18:44:03.558+0200][gc,marking    ] GC(5) Concurrent Mark From Roots 78.704ms
[2021-10-24T18:44:03.558+0200][gc,marking    ] GC(5) Concurrent Preclean
[2021-10-24T18:44:03.558+0200][gc,marking    ] GC(5) Concurrent Preclean 0.065ms
[2021-10-24T18:44:03.558+0200][gc,marking    ] GC(5) Concurrent Mark (4.329s, 4.408s) 78.820ms
[2021-10-24T18:44:03.558+0200][gc,start      ] GC(5) Pause Remark
[2021-10-24T18:44:03.563+0200][gc,stringtable] GC(5) Cleaned string and symbol table, strings: 10586 processed, 11 removed, symbols: 83794 processed, 17 removed
[2021-10-24T18:44:03.564+0200][gc            ] GC(5) Pause Remark 145M->145M(1024M) 5.195ms
[2021-10-24T18:44:03.564+0200][gc,cpu        ] GC(5) User=0.01s Sys=0.00s Real=0.00s
[2021-10-24T18:44:03.564+0200][gc,marking    ] GC(5) Concurrent Rebuild Remembered Sets
[2021-10-24T18:44:03.576+0200][gc,marking    ] GC(5) Concurrent Rebuild Remembered Sets 12.138ms
[2021-10-24T18:44:03.577+0200][gc,start      ] GC(5) Pause Cleanup
[2021-10-24T18:44:03.577+0200][gc            ] GC(5) Pause Cleanup 145M->145M(1024M) 0.421ms
[2021-10-24T18:44:03.577+0200][gc,cpu        ] GC(5) User=0.00s Sys=0.00s Real=0.00s
[2021-10-24T18:44:03.577+0200][gc,marking    ] GC(5) Concurrent Cleanup for Next Mark
[2021-10-24T18:44:03.725+0200][gc,marking    ] GC(5) Concurrent Cleanup for Next Mark 147.835ms
[2021-10-24T18:44:03.725+0200][gc            ] GC(5) Concurrent Cycle 252.359ms
[2021-10-24T18:49:52.815+0200][gc,start      ] GC(6) Pause Young (Concurrent Start) (G1 Evacuation Pause)
[2021-10-24T18:49:52.816+0200][gc,task       ] GC(6) Using 2 workers of 2 for evacuation
[2021-10-24T18:49:52.840+0200][gc,mmu        ] GC(6) MMU target violated: 21.0ms (20.0ms/21.0ms)
[2021-10-24T18:49:52.840+0200][gc,phases     ] GC(6)   Pre Evacuate Collection Set: 0.4ms
[2021-10-24T18:49:52.840+0200][gc,phases     ] GC(6)   Evacuate Collection Set: 21.2ms
[2021-10-24T18:49:52.840+0200][gc,phases     ] GC(6)   Post Evacuate Collection Set: 1.5ms
[2021-10-24T18:49:52.840+0200][gc,phases     ] GC(6)   Other: 1.8ms
[2021-10-24T18:49:52.840+0200][gc,heap       ] GC(6) Eden regions: 49->0(46)
[2021-10-24T18:49:52.840+0200][gc,heap       ] GC(6) Survivor regions: 2->5(7)
[2021-10-24T18:49:52.840+0200][gc,heap       ] GC(6) Old regions: 13->13
[2021-10-24T18:49:52.840+0200][gc,heap       ] GC(6) Humongous regions: 129->129
[2021-10-24T18:49:52.840+0200][gc,metaspace  ] GC(6) Metaspace: 41994K->41994K(1087488K)
[2021-10-24T18:49:52.840+0200][gc            ] GC(6) Pause Young (Concurrent Start) (G1 Evacuation Pause) 190M->144M(1024M) 24.883ms
[2021-10-24T18:49:52.840+0200][gc,cpu        ] GC(6) User=0.02s Sys=0.00s Real=0.02s
[2021-10-24T18:49:52.840+0200][gc            ] GC(7) Concurrent Cycle
[2021-10-24T18:49:52.840+0200][gc,marking    ] GC(7) Concurrent Clear Claimed Marks
[2021-10-24T18:49:52.840+0200][gc,marking    ] GC(7) Concurrent Clear Claimed Marks 0.248ms
[2021-10-24T18:49:52.840+0200][gc,marking    ] GC(7) Concurrent Scan Root Regions
[2021-10-24T18:49:52.852+0200][gc,marking    ] GC(7) Concurrent Scan Root Regions 11.571ms
[2021-10-24T18:49:52.852+0200][gc,marking    ] GC(7) Concurrent Mark (353.701s)
[2021-10-24T18:49:52.852+0200][gc,marking    ] GC(7) Concurrent Mark From Roots
[2021-10-24T18:49:52.852+0200][gc,task       ] GC(7) Using 1 workers of 1 for marking
[2021-10-24T18:49:52.869+0200][gc,marking    ] GC(7) Concurrent Mark From Roots 17.692ms
[2021-10-24T18:49:52.870+0200][gc,marking    ] GC(7) Concurrent Preclean
[2021-10-24T18:49:52.870+0200][gc,marking    ] GC(7) Concurrent Preclean 0.072ms
[2021-10-24T18:49:52.870+0200][gc,marking    ] GC(7) Concurrent Mark (353.701s, 353.719s) 17.825ms
[2021-10-24T18:49:52.870+0200][gc,start      ] GC(7) Pause Remark
[2021-10-24T18:49:52.876+0200][gc,stringtable] GC(7) Cleaned string and symbol table, strings: 11906 processed, 5 removed, symbols: 90303 processed, 5 removed
[2021-10-24T18:49:52.877+0200][gc            ] GC(7) Pause Remark 145M->145M(1024M) 6.977ms
[2021-10-24T18:49:52.877+0200][gc,cpu        ] GC(7) User=0.01s Sys=0.00s Real=0.01s
[2021-10-24T18:49:52.877+0200][gc,marking    ] GC(7) Concurrent Rebuild Remembered Sets
[2021-10-24T18:49:52.892+0200][gc,marking    ] GC(7) Concurrent Rebuild Remembered Sets 15.346ms
[2021-10-24T18:49:52.893+0200][gc,start      ] GC(7) Pause Cleanup
[2021-10-24T18:49:52.893+0200][gc            ] GC(7) Pause Cleanup 145M->145M(1024M) 0.374ms
[2021-10-24T18:49:52.894+0200][gc,cpu        ] GC(7) User=0.00s Sys=0.00s Real=0.01s
[2021-10-24T18:49:52.894+0200][gc,marking    ] GC(7) Concurrent Cleanup for Next Mark
[2021-10-24T18:49:52.920+0200][gc,marking    ] GC(7) Concurrent Cleanup for Next Mark 26.037ms
[2021-10-24T18:49:52.920+0200][gc            ] GC(7) Concurrent Cycle 79.981ms
[2021-10-24T18:56:23.490+0200][gc,start      ] GC(8) Pause Young (Normal) (G1 Evacuation Pause)
[2021-10-24T18:56:23.490+0200][gc,task       ] GC(8) Using 2 workers of 2 for evacuation
[2021-10-24T18:56:23.502+0200][gc,phases     ] GC(8)   Pre Evacuate Collection Set: 0.1ms
[2021-10-24T18:56:23.502+0200][gc,phases     ] GC(8)   Evacuate Collection Set: 11.3ms
[2021-10-24T18:56:23.502+0200][gc,phases     ] GC(8)   Post Evacuate Collection Set: 0.7ms
[2021-10-24T18:56:23.502+0200][gc,phases     ] GC(8)   Other: 0.6ms
[2021-10-24T18:56:23.502+0200][gc,heap       ] GC(8) Eden regions: 46->0(46)
[2021-10-24T18:56:23.502+0200][gc,heap       ] GC(8) Survivor regions: 5->5(7)
[2021-10-24T18:56:23.502+0200][gc,heap       ] GC(8) Old regions: 13->15
[2021-10-24T18:56:23.502+0200][gc,heap       ] GC(8) Humongous regions: 129->129
[2021-10-24T18:56:23.502+0200][gc,metaspace  ] GC(8) Metaspace: 42395K->42395K(1087488K)
[2021-10-24T18:56:23.503+0200][gc            ] GC(8) Pause Young (Normal) (G1 Evacuation Pause) 190M->146M(1024M) 12.701ms
[2021-10-24T18:56:23.503+0200][gc,cpu        ] GC(8) User=0.02s Sys=0.00s Real=0.01s
[2021-10-24T18:57:43.726+0200][gc,heap,exit  ] Heap
[2021-10-24T18:57:43.726+0200][gc,heap,exit  ]  garbage-first heap   total 1048576K, used 171795K [0x00000000c0000000, 0x0000000100000000)
[2021-10-24T18:57:43.726+0200][gc,heap,exit  ]   region size 1024K, 28 young (28672K), 5 survivors (5120K)
[2021-10-24T18:57:43.726+0200][gc,heap,exit  ]  Metaspace       used 43699K, capacity 46381K, committed 46620K, reserved 1089536K
[2021-10-24T18:57:43.726+0200][gc,heap,exit  ]   class space    used 6138K, capacity 7479K, committed 7500K, reserved 1048576K
