[2021-10-24T17:58:50.334+0200][gc,heap] Heap region size: 1M
[2021-10-24T17:58:50.343+0200][gc     ] Using G1
[2021-10-24T17:58:50.343+0200][gc,heap,coops] Heap address: 0x00000000c0000000, size: 1024 MB, Compressed Oops mode: 32-bit
[2021-10-24T17:58:50.343+0200][gc,cds       ] Mark closed archive regions in map: [0x00000000fff00000, 0x00000000fff6aff8]
[2021-10-24T17:58:50.343+0200][gc,cds       ] Mark open archive regions in map: [0x00000000ffe00000, 0x00000000ffe46ff8]
[2021-10-24T17:58:51.817+0200][gc,start     ] GC(0) Pause Young (Normal) (G1 Evacuation Pause)
[2021-10-24T17:58:51.824+0200][gc,task      ] GC(0) Using 2 workers of 2 for evacuation
[2021-10-24T17:58:51.854+0200][gc,mmu       ] GC(0) MMU target violated: 21.0ms (20.0ms/21.0ms)
[2021-10-24T17:58:51.854+0200][gc,phases    ] GC(0)   Pre Evacuate Collection Set: 0.1ms
[2021-10-24T17:58:51.854+0200][gc,phases    ] GC(0)   Evacuate Collection Set: 29.2ms
[2021-10-24T17:58:51.854+0200][gc,phases    ] GC(0)   Post Evacuate Collection Set: 0.5ms
[2021-10-24T17:58:51.854+0200][gc,phases    ] GC(0)   Other: 7.2ms
[2021-10-24T17:58:51.854+0200][gc,heap      ] GC(0) Eden regions: 51->0(44)
[2021-10-24T17:58:51.854+0200][gc,heap      ] GC(0) Survivor regions: 0->7(7)
[2021-10-24T17:58:51.854+0200][gc,heap      ] GC(0) Old regions: 2->2
[2021-10-24T17:58:51.854+0200][gc,heap      ] GC(0) Humongous regions: 0->0
[2021-10-24T17:58:51.854+0200][gc,metaspace ] GC(0) Metaspace: 15394K->15394K(1062912K)
[2021-10-24T17:58:51.854+0200][gc           ] GC(0) Pause Young (Normal) (G1 Evacuation Pause) 51M->7M(1024M) 36.858ms
[2021-10-24T17:58:51.854+0200][gc,cpu       ] GC(0) User=0.03s Sys=0.01s Real=0.04s
[2021-10-24T17:58:52.383+0200][gc,start     ] GC(1) Pause Young (Concurrent Start) (Metadata GC Threshold)
[2021-10-24T17:58:52.383+0200][gc,task      ] GC(1) Using 2 workers of 2 for evacuation
[2021-10-24T17:58:52.414+0200][gc,mmu       ] GC(1) MMU target violated: 21.0ms (20.0ms/21.0ms)
[2021-10-24T17:58:52.414+0200][gc,phases    ] GC(1)   Pre Evacuate Collection Set: 0.1ms
[2021-10-24T17:58:52.414+0200][gc,phases    ] GC(1)   Evacuate Collection Set: 30.7ms
[2021-10-24T17:58:52.414+0200][gc,phases    ] GC(1)   Post Evacuate Collection Set: 0.4ms
[2021-10-24T17:58:52.414+0200][gc,phases    ] GC(1)   Other: 0.2ms
[2021-10-24T17:58:52.414+0200][gc,heap      ] GC(1) Eden regions: 21->0(50)
[2021-10-24T17:58:52.414+0200][gc,heap      ] GC(1) Survivor regions: 7->1(7)
[2021-10-24T17:58:52.414+0200][gc,heap      ] GC(1) Old regions: 2->9
[2021-10-24T17:58:52.414+0200][gc,heap      ] GC(1) Humongous regions: 0->0
[2021-10-24T17:58:52.414+0200][gc,metaspace ] GC(1) Metaspace: 20588K->20588K(1067008K)
[2021-10-24T17:58:52.414+0200][gc           ] GC(1) Pause Young (Concurrent Start) (Metadata GC Threshold) 28M->8M(1024M) 31.411ms
[2021-10-24T17:58:52.414+0200][gc,cpu       ] GC(1) User=0.01s Sys=0.03s Real=0.03s
[2021-10-24T17:58:52.414+0200][gc           ] GC(2) Concurrent Cycle
[2021-10-24T17:58:52.414+0200][gc,marking   ] GC(2) Concurrent Clear Claimed Marks
[2021-10-24T17:58:52.414+0200][gc,marking   ] GC(2) Concurrent Clear Claimed Marks 0.051ms
[2021-10-24T17:58:52.414+0200][gc,marking   ] GC(2) Concurrent Scan Root Regions
[2021-10-24T17:58:52.415+0200][gc,marking   ] GC(2) Concurrent Scan Root Regions 1.067ms
[2021-10-24T17:58:52.415+0200][gc,marking   ] GC(2) Concurrent Mark (2.084s)
[2021-10-24T17:58:52.415+0200][gc,marking   ] GC(2) Concurrent Mark From Roots
[2021-10-24T17:58:52.415+0200][gc,task      ] GC(2) Using 1 workers of 1 for marking
[2021-10-24T17:58:52.440+0200][gc,marking   ] GC(2) Concurrent Mark From Roots 24.756ms
[2021-10-24T17:58:52.440+0200][gc,marking   ] GC(2) Concurrent Preclean
[2021-10-24T17:58:52.440+0200][gc,marking   ] GC(2) Concurrent Preclean 0.060ms
[2021-10-24T17:58:52.440+0200][gc,marking   ] GC(2) Concurrent Mark (2.084s, 2.109s) 24.856ms
[2021-10-24T17:58:52.440+0200][gc,start     ] GC(2) Pause Remark
[2021-10-24T17:58:52.442+0200][gc,stringtable] GC(2) Cleaned string and symbol table, strings: 5065 processed, 0 removed, symbols: 50819 processed, 59 removed
[2021-10-24T17:58:52.443+0200][gc            ] GC(2) Pause Remark 9M->9M(1024M) 2.374ms
[2021-10-24T17:58:52.443+0200][gc,cpu        ] GC(2) User=0.00s Sys=0.00s Real=0.01s
[2021-10-24T17:58:52.443+0200][gc,marking    ] GC(2) Concurrent Rebuild Remembered Sets
[2021-10-24T17:58:52.446+0200][gc,marking    ] GC(2) Concurrent Rebuild Remembered Sets 3.631ms
[2021-10-24T17:58:52.446+0200][gc,start      ] GC(2) Pause Cleanup
[2021-10-24T17:58:52.447+0200][gc            ] GC(2) Pause Cleanup 9M->9M(1024M) 0.170ms
[2021-10-24T17:58:52.447+0200][gc,cpu        ] GC(2) User=0.00s Sys=0.00s Real=0.00s
[2021-10-24T17:58:52.447+0200][gc,marking    ] GC(2) Concurrent Cleanup for Next Mark
[2021-10-24T17:58:52.455+0200][gc,marking    ] GC(2) Concurrent Cleanup for Next Mark 8.191ms
[2021-10-24T17:58:52.455+0200][gc            ] GC(2) Concurrent Cycle 40.736ms
[2021-10-24T17:58:53.340+0200][gc,start      ] GC(3) Pause Young (Normal) (G1 Evacuation Pause)
[2021-10-24T17:58:53.340+0200][gc,task       ] GC(3) Using 2 workers of 2 for evacuation
[2021-10-24T17:58:53.348+0200][gc,phases     ] GC(3)   Pre Evacuate Collection Set: 0.0ms
[2021-10-24T17:58:53.348+0200][gc,phases     ] GC(3)   Evacuate Collection Set: 7.5ms
[2021-10-24T17:58:53.348+0200][gc,phases     ] GC(3)   Post Evacuate Collection Set: 0.4ms
[2021-10-24T17:58:53.348+0200][gc,phases     ] GC(3)   Other: 0.1ms
[2021-10-24T17:58:53.348+0200][gc,heap       ] GC(3) Eden regions: 50->0(46)
[2021-10-24T17:58:53.348+0200][gc,heap       ] GC(3) Survivor regions: 1->5(7)
[2021-10-24T17:58:53.348+0200][gc,heap       ] GC(3) Old regions: 9->9
[2021-10-24T17:58:53.348+0200][gc,heap       ] GC(3) Humongous regions: 129->129
[2021-10-24T17:58:53.348+0200][gc,metaspace  ] GC(3) Metaspace: 29472K->29472K(1075200K)
[2021-10-24T17:58:53.348+0200][gc            ] GC(3) Pause Young (Normal) (G1 Evacuation Pause) 187M->140M(1024M) 8.085ms
[2021-10-24T17:58:53.348+0200][gc,cpu        ] GC(3) User=0.01s Sys=0.00s Real=0.01s
[2021-10-24T17:58:54.076+0200][gc,start      ] GC(4) Pause Young (Concurrent Start) (Metadata GC Threshold)
[2021-10-24T17:58:54.076+0200][gc,task       ] GC(4) Using 2 workers of 2 for evacuation
[2021-10-24T17:58:54.095+0200][gc,phases     ] GC(4)   Pre Evacuate Collection Set: 0.1ms
[2021-10-24T17:58:54.095+0200][gc,phases     ] GC(4)   Evacuate Collection Set: 13.8ms
[2021-10-24T17:58:54.095+0200][gc,phases     ] GC(4)   Post Evacuate Collection Set: 4.7ms
[2021-10-24T17:58:54.095+0200][gc,phases     ] GC(4)   Other: 0.4ms
[2021-10-24T17:58:54.095+0200][gc,heap       ] GC(4) Eden regions: 25->0(49)
[2021-10-24T17:58:54.095+0200][gc,heap       ] GC(4) Survivor regions: 5->2(7)
[2021-10-24T17:58:54.095+0200][gc,heap       ] GC(4) Old regions: 9->13
[2021-10-24T17:58:54.095+0200][gc,heap       ] GC(4) Humongous regions: 129->129
[2021-10-24T17:58:54.095+0200][gc,metaspace  ] GC(4) Metaspace: 34587K->34587K(1081344K)
[2021-10-24T17:58:54.095+0200][gc            ] GC(4) Pause Young (Concurrent Start) (Metadata GC Threshold) 164M->142M(1024M) 19.174ms
[2021-10-24T17:58:54.095+0200][gc,cpu        ] GC(4) User=0.00s Sys=0.02s Real=0.02s
[2021-10-24T17:58:54.095+0200][gc            ] GC(5) Concurrent Cycle
[2021-10-24T17:58:54.095+0200][gc,marking    ] GC(5) Concurrent Clear Claimed Marks
[2021-10-24T17:58:54.096+0200][gc,marking    ] GC(5) Concurrent Clear Claimed Marks 0.116ms
[2021-10-24T17:58:54.096+0200][gc,marking    ] GC(5) Concurrent Scan Root Regions
[2021-10-24T17:58:54.098+0200][gc,marking    ] GC(5) Concurrent Scan Root Regions 2.825ms
[2021-10-24T17:58:54.098+0200][gc,marking    ] GC(5) Concurrent Mark (3.767s)
[2021-10-24T17:58:54.098+0200][gc,marking    ] GC(5) Concurrent Mark From Roots
[2021-10-24T17:58:54.098+0200][gc,task       ] GC(5) Using 1 workers of 1 for marking
[2021-10-24T17:58:54.238+0200][gc,marking    ] GC(5) Concurrent Mark From Roots 139.380ms
[2021-10-24T17:58:54.238+0200][gc,marking    ] GC(5) Concurrent Preclean
[2021-10-24T17:58:54.239+0200][gc,marking    ] GC(5) Concurrent Preclean 0.676ms
[2021-10-24T17:58:54.239+0200][gc,marking    ] GC(5) Concurrent Mark (3.767s, 3.907s) 140.213ms
[2021-10-24T17:58:54.243+0200][gc,start      ] GC(5) Pause Remark
[2021-10-24T17:58:54.246+0200][gc,stringtable] GC(5) Cleaned string and symbol table, strings: 10416 processed, 9 removed, symbols: 83864 processed, 18 removed
[2021-10-24T17:58:54.246+0200][gc            ] GC(5) Pause Remark 146M->146M(1024M) 3.155ms
[2021-10-24T17:58:54.246+0200][gc,cpu        ] GC(5) User=0.00s Sys=0.00s Real=0.00s
[2021-10-24T17:58:54.252+0200][gc,marking    ] GC(5) Concurrent Rebuild Remembered Sets
[2021-10-24T17:58:54.281+0200][gc,marking    ] GC(5) Concurrent Rebuild Remembered Sets 29.447ms
[2021-10-24T17:58:54.288+0200][gc,start      ] GC(5) Pause Cleanup
[2021-10-24T17:58:54.289+0200][gc            ] GC(5) Pause Cleanup 148M->148M(1024M) 0.212ms
[2021-10-24T17:58:54.289+0200][gc,cpu        ] GC(5) User=0.00s Sys=0.00s Real=0.00s
[2021-10-24T17:58:54.289+0200][gc,marking    ] GC(5) Concurrent Cleanup for Next Mark
[2021-10-24T17:58:54.347+0200][gc,marking    ] GC(5) Concurrent Cleanup for Next Mark 57.833ms
[2021-10-24T17:58:54.347+0200][gc            ] GC(5) Concurrent Cycle 251.152ms
[2021-10-24T18:03:59.724+0200][gc,start      ] GC(6) Pause Young (Concurrent Start) (G1 Evacuation Pause)
[2021-10-24T18:03:59.725+0200][gc,task       ] GC(6) Using 2 workers of 2 for evacuation
[2021-10-24T18:03:59.769+0200][gc,mmu        ] GC(6) MMU target violated: 21.0ms (20.0ms/21.0ms)
[2021-10-24T18:03:59.769+0200][gc,phases     ] GC(6)   Pre Evacuate Collection Set: 0.4ms
[2021-10-24T18:03:59.769+0200][gc,phases     ] GC(6)   Evacuate Collection Set: 21.3ms
[2021-10-24T18:03:59.769+0200][gc,phases     ] GC(6)   Post Evacuate Collection Set: 21.5ms
[2021-10-24T18:03:59.769+0200][gc,phases     ] GC(6)   Other: 1.6ms
[2021-10-24T18:03:59.769+0200][gc,heap       ] GC(6) Eden regions: 49->0(46)
[2021-10-24T18:03:59.769+0200][gc,heap       ] GC(6) Survivor regions: 2->5(7)
[2021-10-24T18:03:59.769+0200][gc,heap       ] GC(6) Old regions: 13->13
[2021-10-24T18:03:59.769+0200][gc,heap       ] GC(6) Humongous regions: 129->129
[2021-10-24T18:03:59.769+0200][gc,metaspace  ] GC(6) Metaspace: 42605K->42605K(1087488K)
[2021-10-24T18:03:59.769+0200][gc            ] GC(6) Pause Young (Concurrent Start) (G1 Evacuation Pause) 191M->145M(1024M) 44.907ms
[2021-10-24T18:03:59.769+0200][gc,cpu        ] GC(6) User=0.03s Sys=0.00s Real=0.04s
[2021-10-24T18:03:59.769+0200][gc            ] GC(7) Concurrent Cycle
[2021-10-24T18:03:59.770+0200][gc,marking    ] GC(7) Concurrent Clear Claimed Marks
[2021-10-24T18:03:59.783+0200][gc,marking    ] GC(7) Concurrent Clear Claimed Marks 13.536ms
[2021-10-24T18:03:59.783+0200][gc,marking    ] GC(7) Concurrent Scan Root Regions
[2021-10-24T18:03:59.798+0200][gc,marking    ] GC(7) Concurrent Scan Root Regions 14.432ms
[2021-10-24T18:03:59.798+0200][gc,marking    ] GC(7) Concurrent Mark (309.467s)
[2021-10-24T18:03:59.798+0200][gc,marking    ] GC(7) Concurrent Mark From Roots
[2021-10-24T18:03:59.798+0200][gc,task       ] GC(7) Using 1 workers of 1 for marking
[2021-10-24T18:03:59.857+0200][gc,marking    ] GC(7) Concurrent Mark From Roots 58.716ms
[2021-10-24T18:03:59.857+0200][gc,marking    ] GC(7) Concurrent Preclean
[2021-10-24T18:03:59.857+0200][gc,marking    ] GC(7) Concurrent Preclean 0.295ms
[2021-10-24T18:03:59.857+0200][gc,marking    ] GC(7) Concurrent Mark (309.467s, 309.526s) 59.450ms
[2021-10-24T18:03:59.858+0200][gc,start      ] GC(7) Pause Remark
[2021-10-24T18:03:59.906+0200][gc,stringtable] GC(7) Cleaned string and symbol table, strings: 11497 processed, 8 removed, symbols: 90567 processed, 5 removed
[2021-10-24T18:03:59.906+0200][gc,mmu        ] GC(7) MMU target violated: 21.0ms (20.0ms/21.0ms)
[2021-10-24T18:03:59.906+0200][gc            ] GC(7) Pause Remark 146M->146M(1024M) 47.548ms
[2021-10-24T18:03:59.906+0200][gc,cpu        ] GC(7) User=0.02s Sys=0.00s Real=0.05s
[2021-10-24T18:03:59.906+0200][gc,marking    ] GC(7) Concurrent Rebuild Remembered Sets
[2021-10-24T18:03:59.915+0200][gc,marking    ] GC(7) Concurrent Rebuild Remembered Sets 9.345ms
[2021-10-24T18:03:59.916+0200][gc,start      ] GC(7) Pause Cleanup
[2021-10-24T18:03:59.916+0200][gc            ] GC(7) Pause Cleanup 146M->146M(1024M) 0.214ms
[2021-10-24T18:03:59.916+0200][gc,cpu        ] GC(7) User=0.00s Sys=0.00s Real=0.00s
[2021-10-24T18:03:59.916+0200][gc,marking    ] GC(7) Concurrent Cleanup for Next Mark
[2021-10-24T18:03:59.919+0200][gc,marking    ] GC(7) Concurrent Cleanup for Next Mark 2.386ms
[2021-10-24T18:03:59.919+0200][gc            ] GC(7) Concurrent Cycle 149.130ms
[2021-10-24T18:08:56.503+0200][gc,start      ] GC(8) Pause Young (Normal) (G1 Evacuation Pause)
[2021-10-24T18:08:56.503+0200][gc,task       ] GC(8) Using 2 workers of 2 for evacuation
[2021-10-24T18:08:56.513+0200][gc,phases     ] GC(8)   Pre Evacuate Collection Set: 0.1ms
[2021-10-24T18:08:56.513+0200][gc,phases     ] GC(8)   Evacuate Collection Set: 8.9ms
[2021-10-24T18:08:56.513+0200][gc,phases     ] GC(8)   Post Evacuate Collection Set: 0.5ms
[2021-10-24T18:08:56.513+0200][gc,phases     ] GC(8)   Other: 0.5ms
[2021-10-24T18:08:56.513+0200][gc,heap       ] GC(8) Eden regions: 46->0(46)
[2021-10-24T18:08:56.513+0200][gc,heap       ] GC(8) Survivor regions: 5->5(7)
[2021-10-24T18:08:56.513+0200][gc,heap       ] GC(8) Old regions: 13->15
[2021-10-24T18:08:56.513+0200][gc,heap       ] GC(8) Humongous regions: 129->129
[2021-10-24T18:08:56.513+0200][gc,metaspace  ] GC(8) Metaspace: 44017K->44017K(1089536K)
[2021-10-24T18:08:56.513+0200][gc            ] GC(8) Pause Young (Normal) (G1 Evacuation Pause) 191M->146M(1024M) 10.042ms
[2021-10-24T18:08:56.513+0200][gc,cpu        ] GC(8) User=0.02s Sys=0.00s Real=0.01s
[2021-10-24T18:14:44.917+0200][gc,start      ] GC(9) Pause Young (Normal) (G1 Evacuation Pause)
[2021-10-24T18:14:44.917+0200][gc,task       ] GC(9) Using 2 workers of 2 for evacuation
[2021-10-24T18:14:45.013+0200][gc,mmu        ] GC(9) MMU target violated: 21.0ms (20.0ms/21.0ms)
[2021-10-24T18:14:45.014+0200][gc,phases     ] GC(9)   Pre Evacuate Collection Set: 0.2ms
[2021-10-24T18:14:45.014+0200][gc,phases     ] GC(9)   Evacuate Collection Set: 79.0ms
[2021-10-24T18:14:45.014+0200][gc,phases     ] GC(9)   Post Evacuate Collection Set: 12.7ms
[2021-10-24T18:14:45.014+0200][gc,phases     ] GC(9)   Other: 4.6ms
[2021-10-24T18:14:45.014+0200][gc,heap       ] GC(9) Eden regions: 46->0(47)
[2021-10-24T18:14:45.014+0200][gc,heap       ] GC(9) Survivor regions: 5->4(7)
[2021-10-24T18:14:45.014+0200][gc,heap       ] GC(9) Old regions: 15->16
[2021-10-24T18:14:45.014+0200][gc,heap       ] GC(9) Humongous regions: 129->129
[2021-10-24T18:14:45.014+0200][gc,metaspace  ] GC(9) Metaspace: 44209K->44209K(1089536K)
[2021-10-24T18:14:45.014+0200][gc            ] GC(9) Pause Young (Normal) (G1 Evacuation Pause) 192M->147M(1024M) 96.525ms
[2021-10-24T18:14:45.014+0200][gc,cpu        ] GC(9) User=0.02s Sys=0.01s Real=0.10s
[2021-10-24T18:21:06.490+0200][gc,start      ] GC(10) Pause Young (Normal) (G1 Evacuation Pause)
[2021-10-24T18:21:06.490+0200][gc,task       ] GC(10) Using 2 workers of 2 for evacuation
[2021-10-24T18:21:06.497+0200][gc,phases     ] GC(10)   Pre Evacuate Collection Set: 0.3ms
[2021-10-24T18:21:06.497+0200][gc,phases     ] GC(10)   Evacuate Collection Set: 6.0ms
[2021-10-24T18:21:06.497+0200][gc,phases     ] GC(10)   Post Evacuate Collection Set: 0.4ms
[2021-10-24T18:21:06.497+0200][gc,phases     ] GC(10)   Other: 0.5ms
[2021-10-24T18:21:06.497+0200][gc,heap       ] GC(10) Eden regions: 47->0(48)
[2021-10-24T18:21:06.497+0200][gc,heap       ] GC(10) Survivor regions: 4->3(7)
[2021-10-24T18:21:06.497+0200][gc,heap       ] GC(10) Old regions: 16->17
[2021-10-24T18:21:06.497+0200][gc,heap       ] GC(10) Humongous regions: 129->129
[2021-10-24T18:21:06.497+0200][gc,metaspace  ] GC(10) Metaspace: 44327K->44327K(1089536K)
[2021-10-24T18:21:06.497+0200][gc            ] GC(10) Pause Young (Normal) (G1 Evacuation Pause) 194M->146M(1024M) 7.336ms
[2021-10-24T18:21:06.497+0200][gc,cpu        ] GC(10) User=0.01s Sys=0.00s Real=0.01s
[2021-10-24T18:27:48.229+0200][gc,start      ] GC(11) Pause Young (Normal) (G1 Evacuation Pause)
[2021-10-24T18:27:48.229+0200][gc,task       ] GC(11) Using 2 workers of 2 for evacuation
[2021-10-24T18:27:48.234+0200][gc,phases     ] GC(11)   Pre Evacuate Collection Set: 0.0ms
[2021-10-24T18:27:48.234+0200][gc,phases     ] GC(11)   Evacuate Collection Set: 4.9ms
[2021-10-24T18:27:48.234+0200][gc,phases     ] GC(11)   Post Evacuate Collection Set: 0.4ms
[2021-10-24T18:27:48.234+0200][gc,phases     ] GC(11)   Other: 0.3ms
[2021-10-24T18:27:48.234+0200][gc,heap       ] GC(11) Eden regions: 48->0(47)
[2021-10-24T18:27:48.234+0200][gc,heap       ] GC(11) Survivor regions: 3->4(7)
[2021-10-24T18:27:48.234+0200][gc,heap       ] GC(11) Old regions: 17->17
[2021-10-24T18:27:48.234+0200][gc,heap       ] GC(11) Humongous regions: 129->129
[2021-10-24T18:27:48.234+0200][gc,metaspace  ] GC(11) Metaspace: 44355K->44355K(1089536K)
[2021-10-24T18:27:48.234+0200][gc            ] GC(11) Pause Young (Normal) (G1 Evacuation Pause) 194M->148M(1024M) 5.616ms
[2021-10-24T18:27:48.234+0200][gc,cpu        ] GC(11) User=0.00s Sys=0.00s Real=0.01s
[2021-10-24T18:34:24.108+0200][gc,start      ] GC(12) Pause Young (Normal) (G1 Evacuation Pause)
[2021-10-24T18:34:24.108+0200][gc,task       ] GC(12) Using 2 workers of 2 for evacuation
[2021-10-24T18:34:24.123+0200][gc,phases     ] GC(12)   Pre Evacuate Collection Set: 0.2ms
[2021-10-24T18:34:24.123+0200][gc,phases     ] GC(12)   Evacuate Collection Set: 13.7ms
[2021-10-24T18:34:24.123+0200][gc,phases     ] GC(12)   Post Evacuate Collection Set: 0.7ms
[2021-10-24T18:34:24.123+0200][gc,phases     ] GC(12)   Other: 0.6ms
[2021-10-24T18:34:24.123+0200][gc,heap       ] GC(12) Eden regions: 47->0(46)
[2021-10-24T18:34:24.123+0200][gc,heap       ] GC(12) Survivor regions: 4->5(7)
[2021-10-24T18:34:24.123+0200][gc,heap       ] GC(12) Old regions: 17->17
[2021-10-24T18:34:24.123+0200][gc,heap       ] GC(12) Humongous regions: 129->129
[2021-10-24T18:34:24.123+0200][gc,metaspace  ] GC(12) Metaspace: 44383K->44383K(1089536K)
[2021-10-24T18:34:24.123+0200][gc            ] GC(12) Pause Young (Normal) (G1 Evacuation Pause) 195M->149M(1024M) 15.284ms
[2021-10-24T18:34:24.123+0200][gc,cpu        ] GC(12) User=0.00s Sys=0.01s Real=0.02s
