[2021-10-24T17:59:01.129+0200][gc,heap] Heap region size: 1M
[2021-10-24T17:59:01.140+0200][gc     ] Using G1
[2021-10-24T17:59:01.140+0200][gc,heap,coops] Heap address: 0x00000000c0000000, size: 1024 MB, Compressed Oops mode: 32-bit
[2021-10-24T17:59:01.141+0200][gc,cds       ] Mark closed archive regions in map: [0x00000000fff00000, 0x00000000fff6aff8]
[2021-10-24T17:59:01.141+0200][gc,cds       ] Mark open archive regions in map: [0x00000000ffe00000, 0x00000000ffe46ff8]
[2021-10-24T17:59:02.533+0200][gc,start     ] GC(0) Pause Young (Normal) (G1 Evacuation Pause)
[2021-10-24T17:59:02.533+0200][gc,task      ] GC(0) Using 2 workers of 2 for evacuation
[2021-10-24T17:59:02.557+0200][gc,mmu       ] GC(0) MMU target violated: 21.0ms (20.0ms/21.0ms)
[2021-10-24T17:59:02.557+0200][gc,phases    ] GC(0)   Pre Evacuate Collection Set: 0.0ms
[2021-10-24T17:59:02.557+0200][gc,phases    ] GC(0)   Evacuate Collection Set: 21.6ms
[2021-10-24T17:59:02.557+0200][gc,phases    ] GC(0)   Post Evacuate Collection Set: 1.7ms
[2021-10-24T17:59:02.557+0200][gc,phases    ] GC(0)   Other: 0.8ms
[2021-10-24T17:59:02.557+0200][gc,heap      ] GC(0) Eden regions: 51->0(44)
[2021-10-24T17:59:02.557+0200][gc,heap      ] GC(0) Survivor regions: 0->7(7)
[2021-10-24T17:59:02.557+0200][gc,heap      ] GC(0) Old regions: 2->2
[2021-10-24T17:59:02.557+0200][gc,heap      ] GC(0) Humongous regions: 0->0
[2021-10-24T17:59:02.557+0200][gc,metaspace ] GC(0) Metaspace: 15436K->15436K(1062912K)
[2021-10-24T17:59:02.557+0200][gc           ] GC(0) Pause Young (Normal) (G1 Evacuation Pause) 51M->7M(1024M) 24.145ms
[2021-10-24T17:59:02.557+0200][gc,cpu       ] GC(0) User=0.04s Sys=0.00s Real=0.02s
[2021-10-24T17:59:02.915+0200][gc,start     ] GC(1) Pause Young (Concurrent Start) (Metadata GC Threshold)
[2021-10-24T17:59:02.915+0200][gc,task      ] GC(1) Using 2 workers of 2 for evacuation
[2021-10-24T17:59:02.933+0200][gc,phases    ] GC(1)   Pre Evacuate Collection Set: 0.1ms
[2021-10-24T17:59:02.933+0200][gc,phases    ] GC(1)   Evacuate Collection Set: 17.7ms
[2021-10-24T17:59:02.933+0200][gc,phases    ] GC(1)   Post Evacuate Collection Set: 0.4ms
[2021-10-24T17:59:02.933+0200][gc,phases    ] GC(1)   Other: 0.3ms
[2021-10-24T17:59:02.933+0200][gc,heap      ] GC(1) Eden regions: 20->0(50)
[2021-10-24T17:59:02.933+0200][gc,heap      ] GC(1) Survivor regions: 7->1(7)
[2021-10-24T17:59:02.933+0200][gc,heap      ] GC(1) Old regions: 2->9
[2021-10-24T17:59:02.933+0200][gc,heap      ] GC(1) Humongous regions: 0->0
[2021-10-24T17:59:02.933+0200][gc,metaspace ] GC(1) Metaspace: 20582K->20582K(1067008K)
[2021-10-24T17:59:02.933+0200][gc           ] GC(1) Pause Young (Concurrent Start) (Metadata GC Threshold) 27M->8M(1024M) 18.486ms
[2021-10-24T17:59:02.933+0200][gc,cpu       ] GC(1) User=0.02s Sys=0.01s Real=0.02s
[2021-10-24T17:59:02.933+0200][gc           ] GC(2) Concurrent Cycle
[2021-10-24T17:59:02.933+0200][gc,marking   ] GC(2) Concurrent Clear Claimed Marks
[2021-10-24T17:59:02.933+0200][gc,marking   ] GC(2) Concurrent Clear Claimed Marks 0.063ms
[2021-10-24T17:59:02.933+0200][gc,marking   ] GC(2) Concurrent Scan Root Regions
[2021-10-24T17:59:02.944+0200][gc,marking   ] GC(2) Concurrent Scan Root Regions 10.839ms
[2021-10-24T17:59:02.944+0200][gc,marking   ] GC(2) Concurrent Mark (1.819s)
[2021-10-24T17:59:02.944+0200][gc,marking   ] GC(2) Concurrent Mark From Roots
[2021-10-24T17:59:02.944+0200][gc,task      ] GC(2) Using 1 workers of 1 for marking
[2021-10-24T17:59:02.963+0200][gc,marking   ] GC(2) Concurrent Mark From Roots 19.029ms
[2021-10-24T17:59:02.963+0200][gc,marking   ] GC(2) Concurrent Preclean
[2021-10-24T17:59:02.964+0200][gc,marking   ] GC(2) Concurrent Preclean 0.171ms
[2021-10-24T17:59:02.964+0200][gc,marking   ] GC(2) Concurrent Mark (1.819s, 1.838s) 19.286ms
[2021-10-24T17:59:02.965+0200][gc,start     ] GC(2) Pause Remark
[2021-10-24T17:59:02.971+0200][gc,stringtable] GC(2) Cleaned string and symbol table, strings: 5055 processed, 0 removed, symbols: 50787 processed, 59 removed
[2021-10-24T17:59:02.971+0200][gc            ] GC(2) Pause Remark 8M->8M(1024M) 6.117ms
[2021-10-24T17:59:02.971+0200][gc,cpu        ] GC(2) User=0.01s Sys=0.00s Real=0.01s
[2021-10-24T17:59:02.971+0200][gc,marking    ] GC(2) Concurrent Rebuild Remembered Sets
[2021-10-24T17:59:02.977+0200][gc,marking    ] GC(2) Concurrent Rebuild Remembered Sets 5.519ms
[2021-10-24T17:59:02.977+0200][gc,start      ] GC(2) Pause Cleanup
[2021-10-24T17:59:02.977+0200][gc            ] GC(2) Pause Cleanup 8M->8M(1024M) 0.200ms
[2021-10-24T17:59:02.977+0200][gc,cpu        ] GC(2) User=0.00s Sys=0.00s Real=0.00s
[2021-10-24T17:59:02.977+0200][gc,marking    ] GC(2) Concurrent Cleanup for Next Mark
[2021-10-24T17:59:02.992+0200][gc,marking    ] GC(2) Concurrent Cleanup for Next Mark 14.938ms
[2021-10-24T17:59:02.992+0200][gc            ] GC(2) Concurrent Cycle 59.062ms
[2021-10-24T17:59:03.914+0200][gc,start      ] GC(3) Pause Young (Normal) (G1 Evacuation Pause)
[2021-10-24T17:59:03.914+0200][gc,task       ] GC(3) Using 2 workers of 2 for evacuation
[2021-10-24T17:59:03.919+0200][gc,phases     ] GC(3)   Pre Evacuate Collection Set: 0.0ms
[2021-10-24T17:59:03.919+0200][gc,phases     ] GC(3)   Evacuate Collection Set: 4.5ms
[2021-10-24T17:59:03.919+0200][gc,phases     ] GC(3)   Post Evacuate Collection Set: 0.4ms
[2021-10-24T17:59:03.919+0200][gc,phases     ] GC(3)   Other: 0.1ms
[2021-10-24T17:59:03.919+0200][gc,heap       ] GC(3) Eden regions: 50->0(47)
[2021-10-24T17:59:03.919+0200][gc,heap       ] GC(3) Survivor regions: 1->4(7)
[2021-10-24T17:59:03.919+0200][gc,heap       ] GC(3) Old regions: 9->9
[2021-10-24T17:59:03.919+0200][gc,heap       ] GC(3) Humongous regions: 129->129
[2021-10-24T17:59:03.919+0200][gc,metaspace  ] GC(3) Metaspace: 29724K->29724K(1075200K)
[2021-10-24T17:59:03.919+0200][gc            ] GC(3) Pause Young (Normal) (G1 Evacuation Pause) 187M->140M(1024M) 5.112ms
[2021-10-24T17:59:03.919+0200][gc,cpu        ] GC(3) User=0.00s Sys=0.00s Real=0.00s
[2021-10-24T17:59:04.417+0200][gc,start      ] GC(4) Pause Young (Concurrent Start) (Metadata GC Threshold)
[2021-10-24T17:59:04.417+0200][gc,task       ] GC(4) Using 2 workers of 2 for evacuation
[2021-10-24T17:59:04.428+0200][gc,phases     ] GC(4)   Pre Evacuate Collection Set: 0.1ms
[2021-10-24T17:59:04.428+0200][gc,phases     ] GC(4)   Evacuate Collection Set: 9.7ms
[2021-10-24T17:59:04.428+0200][gc,phases     ] GC(4)   Post Evacuate Collection Set: 0.3ms
[2021-10-24T17:59:04.428+0200][gc,phases     ] GC(4)   Other: 0.3ms
[2021-10-24T17:59:04.428+0200][gc,heap       ] GC(4) Eden regions: 24->0(45)
[2021-10-24T17:59:04.428+0200][gc,heap       ] GC(4) Survivor regions: 4->6(7)
[2021-10-24T17:59:04.428+0200][gc,heap       ] GC(4) Old regions: 9->9
[2021-10-24T17:59:04.428+0200][gc,heap       ] GC(4) Humongous regions: 129->129
[2021-10-24T17:59:04.428+0200][gc,metaspace  ] GC(4) Metaspace: 34572K->34572K(1081344K)
[2021-10-24T17:59:04.428+0200][gc            ] GC(4) Pause Young (Concurrent Start) (Metadata GC Threshold) 163M->142M(1024M) 10.492ms
[2021-10-24T17:59:04.428+0200][gc,cpu        ] GC(4) User=0.01s Sys=0.00s Real=0.01s
[2021-10-24T17:59:04.428+0200][gc            ] GC(5) Concurrent Cycle
[2021-10-24T17:59:04.428+0200][gc,marking    ] GC(5) Concurrent Clear Claimed Marks
[2021-10-24T17:59:04.428+0200][gc,marking    ] GC(5) Concurrent Clear Claimed Marks 0.171ms
[2021-10-24T17:59:04.428+0200][gc,marking    ] GC(5) Concurrent Scan Root Regions
[2021-10-24T17:59:04.432+0200][gc,marking    ] GC(5) Concurrent Scan Root Regions 3.662ms
[2021-10-24T17:59:04.432+0200][gc,marking    ] GC(5) Concurrent Mark (3.306s)
[2021-10-24T17:59:04.432+0200][gc,marking    ] GC(5) Concurrent Mark From Roots
[2021-10-24T17:59:04.432+0200][gc,task       ] GC(5) Using 1 workers of 1 for marking
[2021-10-24T17:59:04.446+0200][gc,marking    ] GC(5) Concurrent Mark From Roots 14.101ms
[2021-10-24T17:59:04.446+0200][gc,marking    ] GC(5) Concurrent Preclean
[2021-10-24T17:59:04.446+0200][gc,marking    ] GC(5) Concurrent Preclean 0.051ms
[2021-10-24T17:59:04.446+0200][gc,marking    ] GC(5) Concurrent Mark (3.306s, 3.320s) 14.207ms
[2021-10-24T17:59:04.447+0200][gc,start      ] GC(5) Pause Remark
[2021-10-24T17:59:04.450+0200][gc,stringtable] GC(5) Cleaned string and symbol table, strings: 10365 processed, 12 removed, symbols: 84527 processed, 15 removed
[2021-10-24T17:59:04.450+0200][gc            ] GC(5) Pause Remark 142M->142M(1024M) 2.899ms
[2021-10-24T17:59:04.450+0200][gc,cpu        ] GC(5) User=0.00s Sys=0.00s Real=0.01s
[2021-10-24T17:59:04.450+0200][gc,marking    ] GC(5) Concurrent Rebuild Remembered Sets
[2021-10-24T17:59:04.467+0200][gc,marking    ] GC(5) Concurrent Rebuild Remembered Sets 16.675ms
[2021-10-24T17:59:04.467+0200][gc,start      ] GC(5) Pause Cleanup
[2021-10-24T17:59:04.467+0200][gc            ] GC(5) Pause Cleanup 142M->142M(1024M) 0.220ms
[2021-10-24T17:59:04.467+0200][gc,cpu        ] GC(5) User=0.00s Sys=0.00s Real=0.00s
[2021-10-24T17:59:04.467+0200][gc,marking    ] GC(5) Concurrent Cleanup for Next Mark
[2021-10-24T17:59:04.478+0200][gc,marking    ] GC(5) Concurrent Cleanup for Next Mark 11.035ms
[2021-10-24T17:59:04.478+0200][gc            ] GC(5) Concurrent Cycle 50.567ms
[2021-10-24T18:03:15.831+0200][gc,start      ] GC(6) Pause Young (Normal) (G1 Evacuation Pause)
[2021-10-24T18:03:15.832+0200][gc,task       ] GC(6) Using 2 workers of 2 for evacuation
[2021-10-24T18:03:15.846+0200][gc,phases     ] GC(6)   Pre Evacuate Collection Set: 0.3ms
[2021-10-24T18:03:15.846+0200][gc,phases     ] GC(6)   Evacuate Collection Set: 12.8ms
[2021-10-24T18:03:15.846+0200][gc,phases     ] GC(6)   Post Evacuate Collection Set: 0.6ms
[2021-10-24T18:03:15.846+0200][gc,phases     ] GC(6)   Other: 1.8ms
[2021-10-24T18:03:15.846+0200][gc,heap       ] GC(6) Eden regions: 45->0(45)
[2021-10-24T18:03:15.846+0200][gc,heap       ] GC(6) Survivor regions: 6->6(7)
[2021-10-24T18:03:15.846+0200][gc,heap       ] GC(6) Old regions: 9->12
[2021-10-24T18:03:15.846+0200][gc,heap       ] GC(6) Humongous regions: 129->129
[2021-10-24T18:03:15.846+0200][gc,metaspace  ] GC(6) Metaspace: 40533K->40533K(1085440K)
[2021-10-24T18:03:15.848+0200][gc            ] GC(6) Pause Young (Normal) (G1 Evacuation Pause) 187M->145M(1024M) 15.430ms
[2021-10-24T18:03:15.848+0200][gc,cpu        ] GC(6) User=0.02s Sys=0.01s Real=0.01s
[2021-10-24T18:07:54.289+0200][gc,start      ] GC(7) Pause Young (Normal) (G1 Evacuation Pause)
[2021-10-24T18:07:54.289+0200][gc,task       ] GC(7) Using 2 workers of 2 for evacuation
[2021-10-24T18:07:54.299+0200][gc,phases     ] GC(7)   Pre Evacuate Collection Set: 0.1ms
[2021-10-24T18:07:54.299+0200][gc,phases     ] GC(7)   Evacuate Collection Set: 9.3ms
[2021-10-24T18:07:54.299+0200][gc,phases     ] GC(7)   Post Evacuate Collection Set: 0.5ms
[2021-10-24T18:07:54.299+0200][gc,phases     ] GC(7)   Other: 0.5ms
[2021-10-24T18:07:54.299+0200][gc,heap       ] GC(7) Eden regions: 45->0(46)
[2021-10-24T18:07:54.299+0200][gc,heap       ] GC(7) Survivor regions: 6->5(7)
[2021-10-24T18:07:54.299+0200][gc,heap       ] GC(7) Old regions: 12->14
[2021-10-24T18:07:54.299+0200][gc,heap       ] GC(7) Humongous regions: 129->129
[2021-10-24T18:07:54.299+0200][gc,metaspace  ] GC(7) Metaspace: 42147K->42147K(1087488K)
[2021-10-24T18:07:54.300+0200][gc            ] GC(7) Pause Young (Normal) (G1 Evacuation Pause) 190M->146M(1024M) 10.422ms
[2021-10-24T18:07:54.300+0200][gc,cpu        ] GC(7) User=0.02s Sys=0.00s Real=0.01s
[2021-10-24T18:13:03.137+0200][gc,start      ] GC(8) Pause Young (Normal) (G1 Evacuation Pause)
[2021-10-24T18:13:03.137+0200][gc,task       ] GC(8) Using 2 workers of 2 for evacuation
[2021-10-24T18:13:03.149+0200][gc,phases     ] GC(8)   Pre Evacuate Collection Set: 0.4ms
[2021-10-24T18:13:03.149+0200][gc,phases     ] GC(8)   Evacuate Collection Set: 11.0ms
[2021-10-24T18:13:03.149+0200][gc,phases     ] GC(8)   Post Evacuate Collection Set: 0.5ms
[2021-10-24T18:13:03.149+0200][gc,phases     ] GC(8)   Other: 0.8ms
[2021-10-24T18:13:03.149+0200][gc,heap       ] GC(8) Eden regions: 46->0(47)
[2021-10-24T18:13:03.149+0200][gc,heap       ] GC(8) Survivor regions: 5->4(7)
[2021-10-24T18:13:03.149+0200][gc,heap       ] GC(8) Old regions: 14->16
[2021-10-24T18:13:03.149+0200][gc,heap       ] GC(8) Humongous regions: 129->129
[2021-10-24T18:13:03.149+0200][gc,metaspace  ] GC(8) Metaspace: 42318K->42318K(1087488K)
[2021-10-24T18:13:03.149+0200][gc            ] GC(8) Pause Young (Normal) (G1 Evacuation Pause) 192M->146M(1024M) 12.612ms
[2021-10-24T18:13:03.149+0200][gc,cpu        ] GC(8) User=0.02s Sys=0.00s Real=0.01s
[2021-10-24T18:18:38.399+0200][gc,start      ] GC(9) Pause Young (Normal) (G1 Evacuation Pause)
[2021-10-24T18:18:38.400+0200][gc,task       ] GC(9) Using 2 workers of 2 for evacuation
[2021-10-24T18:18:38.419+0200][gc,phases     ] GC(9)   Pre Evacuate Collection Set: 0.8ms
[2021-10-24T18:18:38.419+0200][gc,phases     ] GC(9)   Evacuate Collection Set: 15.0ms
[2021-10-24T18:18:38.419+0200][gc,phases     ] GC(9)   Post Evacuate Collection Set: 1.3ms
[2021-10-24T18:18:38.419+0200][gc,phases     ] GC(9)   Other: 3.7ms
[2021-10-24T18:18:38.419+0200][gc,heap       ] GC(9) Eden regions: 47->0(46)
[2021-10-24T18:18:38.419+0200][gc,heap       ] GC(9) Survivor regions: 4->5(7)
[2021-10-24T18:18:38.419+0200][gc,heap       ] GC(9) Old regions: 16->16
[2021-10-24T18:18:38.419+0200][gc,heap       ] GC(9) Humongous regions: 129->129
[2021-10-24T18:18:38.419+0200][gc,metaspace  ] GC(9) Metaspace: 42419K->42419K(1087488K)
[2021-10-24T18:18:38.419+0200][gc            ] GC(9) Pause Young (Normal) (G1 Evacuation Pause) 193M->147M(1024M) 20.482ms
[2021-10-24T18:18:38.419+0200][gc,cpu        ] GC(9) User=0.01s Sys=0.02s Real=0.02s
[2021-10-24T18:24:15.701+0200][gc,start      ] GC(10) Pause Young (Normal) (G1 Evacuation Pause)
[2021-10-24T18:24:15.701+0200][gc,task       ] GC(10) Using 2 workers of 2 for evacuation
[2021-10-24T18:24:15.709+0200][gc,phases     ] GC(10)   Pre Evacuate Collection Set: 0.0ms
[2021-10-24T18:24:15.709+0200][gc,phases     ] GC(10)   Evacuate Collection Set: 7.5ms
[2021-10-24T18:24:15.709+0200][gc,phases     ] GC(10)   Post Evacuate Collection Set: 0.4ms
[2021-10-24T18:24:15.709+0200][gc,phases     ] GC(10)   Other: 0.2ms
[2021-10-24T18:24:15.709+0200][gc,heap       ] GC(10) Eden regions: 46->0(46)
[2021-10-24T18:24:15.709+0200][gc,heap       ] GC(10) Survivor regions: 5->5(7)
[2021-10-24T18:24:15.709+0200][gc,heap       ] GC(10) Old regions: 16->17
[2021-10-24T18:24:15.709+0200][gc,heap       ] GC(10) Humongous regions: 129->129
[2021-10-24T18:24:15.709+0200][gc,metaspace  ] GC(10) Metaspace: 42456K->42456K(1087488K)
[2021-10-24T18:24:15.709+0200][gc            ] GC(10) Pause Young (Normal) (G1 Evacuation Pause) 193M->148M(1024M) 8.189ms
[2021-10-24T18:24:15.709+0200][gc,cpu        ] GC(10) User=0.01s Sys=0.00s Real=0.01s
[2021-10-24T18:29:55.206+0200][gc,start      ] GC(11) Pause Young (Normal) (G1 Evacuation Pause)
[2021-10-24T18:29:55.207+0200][gc,task       ] GC(11) Using 2 workers of 2 for evacuation
[2021-10-24T18:29:55.215+0200][gc,phases     ] GC(11)   Pre Evacuate Collection Set: 0.1ms
[2021-10-24T18:29:55.215+0200][gc,phases     ] GC(11)   Evacuate Collection Set: 8.0ms
[2021-10-24T18:29:55.215+0200][gc,phases     ] GC(11)   Post Evacuate Collection Set: 0.4ms
[2021-10-24T18:29:55.215+0200][gc,phases     ] GC(11)   Other: 0.7ms
[2021-10-24T18:29:55.215+0200][gc,heap       ] GC(11) Eden regions: 46->0(47)
[2021-10-24T18:29:55.215+0200][gc,heap       ] GC(11) Survivor regions: 5->4(7)
[2021-10-24T18:29:55.215+0200][gc,heap       ] GC(11) Old regions: 17->18
[2021-10-24T18:29:55.215+0200][gc,heap       ] GC(11) Humongous regions: 129->129
[2021-10-24T18:29:55.215+0200][gc,metaspace  ] GC(11) Metaspace: 42463K->42463K(1087488K)
[2021-10-24T18:29:55.215+0200][gc            ] GC(11) Pause Young (Normal) (G1 Evacuation Pause) 194M->148M(1024M) 9.220ms
[2021-10-24T18:29:55.215+0200][gc,cpu        ] GC(11) User=0.02s Sys=0.00s Real=0.01s
[2021-10-24T18:35:57.999+0200][gc,start      ] GC(12) Pause Young (Normal) (G1 Evacuation Pause)
[2021-10-24T18:35:59.368+0200][gc,task       ] GC(12) Using 2 workers of 2 for evacuation
[2021-10-24T18:36:03.376+0200][gc,mmu        ] GC(12) MMU target violated: 21.0ms (20.0ms/21.0ms)
[2021-10-24T18:36:04.305+0200][gc,phases     ] GC(12)   Pre Evacuate Collection Set: 4.2ms
[2021-10-24T18:36:05.711+0200][gc,phases     ] GC(12)   Evacuate Collection Set: 81.1ms
[2021-10-24T18:36:06.303+0200][gc,phases     ] GC(12)   Post Evacuate Collection Set: 294.1ms
[2021-10-24T18:36:06.789+0200][gc,phases     ] GC(12)   Other: 6218.1ms
[2021-10-24T18:36:06.791+0200][gc,heap       ] GC(12) Eden regions: 47->0(46)
[2021-10-24T18:36:06.791+0200][gc,heap       ] GC(12) Survivor regions: 4->5(7)
[2021-10-24T18:36:06.791+0200][gc,heap       ] GC(12) Old regions: 18->19
[2021-10-24T18:36:06.791+0200][gc,heap       ] GC(12) Humongous regions: 129->129
[2021-10-24T18:36:06.798+0200][gc,metaspace  ] GC(12) Metaspace: 42494K->42494K(1087488K)
[2021-10-24T18:36:07.108+0200][gc            ] GC(12) Pause Young (Normal) (G1 Evacuation Pause) 195M->150M(1024M) 9183.078ms
[2021-10-24T18:36:07.112+0200][gc,cpu        ] GC(12) User=0.00s Sys=0.25s Real=9.33s
