[2021-10-24T17:18:25.407+0200][gc,heap] Heap region size: 1M
[2021-10-24T17:18:25.416+0200][gc     ] Using G1
[2021-10-24T17:18:25.416+0200][gc,heap,coops] Heap address: 0x00000000c0000000, size: 1024 MB, Compressed Oops mode: 32-bit
[2021-10-24T17:18:25.416+0200][gc,cds       ] Mark closed archive regions in map: [0x00000000fff00000, 0x00000000fff6aff8]
[2021-10-24T17:18:25.416+0200][gc,cds       ] Mark open archive regions in map: [0x00000000ffe00000, 0x00000000ffe46ff8]
[2021-10-24T17:18:27.282+0200][gc,start     ] GC(0) Pause Young (Normal) (G1 Evacuation Pause)
[2021-10-24T17:18:27.285+0200][gc,task      ] GC(0) Using 2 workers of 2 for evacuation
[2021-10-24T17:18:27.305+0200][gc,phases    ] GC(0)   Pre Evacuate Collection Set: 0.2ms
[2021-10-24T17:18:27.305+0200][gc,phases    ] GC(0)   Evacuate Collection Set: 17.8ms
[2021-10-24T17:18:27.305+0200][gc,phases    ] GC(0)   Post Evacuate Collection Set: 0.7ms
[2021-10-24T17:18:27.305+0200][gc,phases    ] GC(0)   Other: 3.7ms
[2021-10-24T17:18:27.305+0200][gc,heap      ] GC(0) Eden regions: 51->0(44)
[2021-10-24T17:18:27.305+0200][gc,heap      ] GC(0) Survivor regions: 0->7(7)
[2021-10-24T17:18:27.305+0200][gc,heap      ] GC(0) Old regions: 2->2
[2021-10-24T17:18:27.305+0200][gc,heap      ] GC(0) Humongous regions: 0->0
[2021-10-24T17:18:27.305+0200][gc,metaspace ] GC(0) Metaspace: 15253K->15253K(1062912K)
[2021-10-24T17:18:27.305+0200][gc           ] GC(0) Pause Young (Normal) (G1 Evacuation Pause) 51M->7M(1024M) 22.501ms
[2021-10-24T17:18:27.305+0200][gc,cpu       ] GC(0) User=0.02s Sys=0.02s Real=0.02s
[2021-10-24T17:18:27.982+0200][gc,start     ] GC(1) Pause Young (Concurrent Start) (Metadata GC Threshold)
[2021-10-24T17:18:27.983+0200][gc,task      ] GC(1) Using 2 workers of 2 for evacuation
[2021-10-24T17:18:28.008+0200][gc,mmu       ] GC(1) MMU target violated: 21.0ms (20.0ms/21.0ms)
[2021-10-24T17:18:28.008+0200][gc,phases    ] GC(1)   Pre Evacuate Collection Set: 0.1ms
[2021-10-24T17:18:28.008+0200][gc,phases    ] GC(1)   Evacuate Collection Set: 24.4ms
[2021-10-24T17:18:28.008+0200][gc,phases    ] GC(1)   Post Evacuate Collection Set: 0.6ms
[2021-10-24T17:18:28.008+0200][gc,phases    ] GC(1)   Other: 0.3ms
[2021-10-24T17:18:28.008+0200][gc,heap      ] GC(1) Eden regions: 23->0(50)
[2021-10-24T17:18:28.008+0200][gc,heap      ] GC(1) Survivor regions: 7->1(7)
[2021-10-24T17:18:28.008+0200][gc,heap      ] GC(1) Old regions: 2->9
[2021-10-24T17:18:28.008+0200][gc,heap      ] GC(1) Humongous regions: 0->0
[2021-10-24T17:18:28.008+0200][gc,metaspace ] GC(1) Metaspace: 20632K->20632K(1067008K)
[2021-10-24T17:18:28.008+0200][gc           ] GC(1) Pause Young (Concurrent Start) (Metadata GC Threshold) 29M->8M(1024M) 25.434ms
[2021-10-24T17:18:28.008+0200][gc,cpu       ] GC(1) User=0.03s Sys=0.01s Real=0.02s
[2021-10-24T17:18:28.008+0200][gc           ] GC(2) Concurrent Cycle
[2021-10-24T17:18:28.008+0200][gc,marking   ] GC(2) Concurrent Clear Claimed Marks
[2021-10-24T17:18:28.008+0200][gc,marking   ] GC(2) Concurrent Clear Claimed Marks 0.145ms
[2021-10-24T17:18:28.008+0200][gc,marking   ] GC(2) Concurrent Scan Root Regions
[2021-10-24T17:18:28.010+0200][gc,marking   ] GC(2) Concurrent Scan Root Regions 1.467ms
[2021-10-24T17:18:28.010+0200][gc,marking   ] GC(2) Concurrent Mark (2.606s)
[2021-10-24T17:18:28.010+0200][gc,marking   ] GC(2) Concurrent Mark From Roots
[2021-10-24T17:18:28.010+0200][gc,task      ] GC(2) Using 1 workers of 1 for marking
[2021-10-24T17:18:28.049+0200][gc,marking   ] GC(2) Concurrent Mark From Roots 39.225ms
[2021-10-24T17:18:28.049+0200][gc,marking   ] GC(2) Concurrent Preclean
[2021-10-24T17:18:28.049+0200][gc,marking   ] GC(2) Concurrent Preclean 0.071ms
[2021-10-24T17:18:28.049+0200][gc,marking   ] GC(2) Concurrent Mark (2.606s, 2.645s) 39.346ms
[2021-10-24T17:18:28.049+0200][gc,start     ] GC(2) Pause Remark
[2021-10-24T17:18:28.052+0200][gc,stringtable] GC(2) Cleaned string and symbol table, strings: 5176 processed, 0 removed, symbols: 51553 processed, 62 removed
[2021-10-24T17:18:28.052+0200][gc            ] GC(2) Pause Remark 9M->9M(1024M) 2.769ms
[2021-10-24T17:18:28.052+0200][gc,cpu        ] GC(2) User=0.00s Sys=0.00s Real=0.01s
[2021-10-24T17:18:28.052+0200][gc,marking    ] GC(2) Concurrent Rebuild Remembered Sets
[2021-10-24T17:18:28.059+0200][gc,marking    ] GC(2) Concurrent Rebuild Remembered Sets 7.365ms
[2021-10-24T17:18:28.060+0200][gc,start      ] GC(2) Pause Cleanup
[2021-10-24T17:18:28.060+0200][gc            ] GC(2) Pause Cleanup 10M->10M(1024M) 0.269ms
[2021-10-24T17:18:28.060+0200][gc,cpu        ] GC(2) User=0.00s Sys=0.00s Real=0.00s
[2021-10-24T17:18:28.060+0200][gc,marking    ] GC(2) Concurrent Cleanup for Next Mark
[2021-10-24T17:18:28.096+0200][gc,marking    ] GC(2) Concurrent Cleanup for Next Mark 36.454ms
[2021-10-24T17:18:28.097+0200][gc            ] GC(2) Concurrent Cycle 88.478ms
[2021-10-24T17:18:29.755+0200][gc,start      ] GC(3) Pause Young (Normal) (G1 Evacuation Pause)
[2021-10-24T17:18:29.755+0200][gc,task       ] GC(3) Using 2 workers of 2 for evacuation
[2021-10-24T17:18:29.780+0200][gc,mmu        ] GC(3) MMU target violated: 21.0ms (20.0ms/21.0ms)
[2021-10-24T17:18:29.781+0200][gc,phases     ] GC(3)   Pre Evacuate Collection Set: 0.1ms
[2021-10-24T17:18:29.781+0200][gc,phases     ] GC(3)   Evacuate Collection Set: 24.2ms
[2021-10-24T17:18:29.781+0200][gc,phases     ] GC(3)   Post Evacuate Collection Set: 0.6ms
[2021-10-24T17:18:29.781+0200][gc,phases     ] GC(3)   Other: 0.3ms
[2021-10-24T17:18:29.781+0200][gc,heap       ] GC(3) Eden regions: 50->0(46)
[2021-10-24T17:18:29.781+0200][gc,heap       ] GC(3) Survivor regions: 1->5(7)
[2021-10-24T17:18:29.781+0200][gc,heap       ] GC(3) Old regions: 9->9
[2021-10-24T17:18:29.781+0200][gc,heap       ] GC(3) Humongous regions: 129->129
[2021-10-24T17:18:29.781+0200][gc,metaspace  ] GC(3) Metaspace: 29531K->29531K(1075200K)
[2021-10-24T17:18:29.781+0200][gc            ] GC(3) Pause Young (Normal) (G1 Evacuation Pause) 187M->140M(1024M) 25.226ms
[2021-10-24T17:18:29.781+0200][gc,cpu        ] GC(3) User=0.02s Sys=0.00s Real=0.02s
[2021-10-24T17:18:30.446+0200][gc,start      ] GC(4) Pause Young (Concurrent Start) (Metadata GC Threshold)
[2021-10-24T17:18:30.446+0200][gc,task       ] GC(4) Using 2 workers of 2 for evacuation
[2021-10-24T17:18:30.456+0200][gc,phases     ] GC(4)   Pre Evacuate Collection Set: 0.1ms
[2021-10-24T17:18:30.456+0200][gc,phases     ] GC(4)   Evacuate Collection Set: 9.1ms
[2021-10-24T17:18:30.456+0200][gc,phases     ] GC(4)   Post Evacuate Collection Set: 0.3ms
[2021-10-24T17:18:30.456+0200][gc,phases     ] GC(4)   Other: 0.2ms
[2021-10-24T17:18:30.456+0200][gc,heap       ] GC(4) Eden regions: 23->0(49)
[2021-10-24T17:18:30.456+0200][gc,heap       ] GC(4) Survivor regions: 5->2(7)
[2021-10-24T17:18:30.456+0200][gc,heap       ] GC(4) Old regions: 9->13
[2021-10-24T17:18:30.456+0200][gc,heap       ] GC(4) Humongous regions: 129->129
[2021-10-24T17:18:30.456+0200][gc,metaspace  ] GC(4) Metaspace: 34589K->34589K(1081344K)
[2021-10-24T17:18:30.456+0200][gc            ] GC(4) Pause Young (Concurrent Start) (Metadata GC Threshold) 163M->142M(1024M) 9.860ms
[2021-10-24T17:18:30.456+0200][gc,cpu        ] GC(4) User=0.01s Sys=0.00s Real=0.01s
[2021-10-24T17:18:30.456+0200][gc            ] GC(5) Concurrent Cycle
[2021-10-24T17:18:30.456+0200][gc,marking    ] GC(5) Concurrent Clear Claimed Marks
[2021-10-24T17:18:30.456+0200][gc,marking    ] GC(5) Concurrent Clear Claimed Marks 0.068ms
[2021-10-24T17:18:30.456+0200][gc,marking    ] GC(5) Concurrent Scan Root Regions
[2021-10-24T17:18:30.458+0200][gc,marking    ] GC(5) Concurrent Scan Root Regions 1.333ms
[2021-10-24T17:18:30.458+0200][gc,marking    ] GC(5) Concurrent Mark (5.053s)
[2021-10-24T17:18:30.458+0200][gc,marking    ] GC(5) Concurrent Mark From Roots
[2021-10-24T17:18:30.458+0200][gc,task       ] GC(5) Using 1 workers of 1 for marking
[2021-10-24T17:18:30.497+0200][gc,marking    ] GC(5) Concurrent Mark From Roots 38.949ms
[2021-10-24T17:18:30.497+0200][gc,marking    ] GC(5) Concurrent Preclean
[2021-10-24T17:18:30.497+0200][gc,marking    ] GC(5) Concurrent Preclean 0.057ms
[2021-10-24T17:18:30.497+0200][gc,marking    ] GC(5) Concurrent Mark (5.053s, 5.093s) 39.056ms
[2021-10-24T17:18:30.503+0200][gc,start      ] GC(5) Pause Remark
[2021-10-24T17:18:30.508+0200][gc,stringtable] GC(5) Cleaned string and symbol table, strings: 10295 processed, 12 removed, symbols: 83778 processed, 16 removed
[2021-10-24T17:18:30.508+0200][gc            ] GC(5) Pause Remark 145M->145M(1024M) 4.716ms
[2021-10-24T17:18:30.508+0200][gc,cpu        ] GC(5) User=0.00s Sys=0.00s Real=0.00s
[2021-10-24T17:18:30.508+0200][gc,marking    ] GC(5) Concurrent Rebuild Remembered Sets
[2021-10-24T17:18:30.520+0200][gc,marking    ] GC(5) Concurrent Rebuild Remembered Sets 11.727ms
[2021-10-24T17:18:30.525+0200][gc,start      ] GC(5) Pause Cleanup
[2021-10-24T17:18:30.526+0200][gc            ] GC(5) Pause Cleanup 147M->147M(1024M) 0.468ms
[2021-10-24T17:18:30.526+0200][gc,cpu        ] GC(5) User=0.00s Sys=0.00s Real=0.00s
[2021-10-24T17:18:30.526+0200][gc,marking    ] GC(5) Concurrent Cleanup for Next Mark
[2021-10-24T17:18:30.569+0200][gc,marking    ] GC(5) Concurrent Cleanup for Next Mark 42.818ms
[2021-10-24T17:18:30.569+0200][gc            ] GC(5) Concurrent Cycle 112.668ms
[2021-10-24T17:26:40.979+0200][gc,start      ] GC(6) Pause Young (Concurrent Start) (G1 Evacuation Pause)
[2021-10-24T17:26:40.979+0200][gc,task       ] GC(6) Using 2 workers of 2 for evacuation
[2021-10-24T17:26:40.994+0200][gc,phases     ] GC(6)   Pre Evacuate Collection Set: 0.2ms
[2021-10-24T17:26:40.994+0200][gc,phases     ] GC(6)   Evacuate Collection Set: 13.3ms
[2021-10-24T17:26:40.994+0200][gc,phases     ] GC(6)   Post Evacuate Collection Set: 0.8ms
[2021-10-24T17:26:40.994+0200][gc,phases     ] GC(6)   Other: 1.2ms
[2021-10-24T17:26:40.994+0200][gc,heap       ] GC(6) Eden regions: 49->0(46)
[2021-10-24T17:26:40.994+0200][gc,heap       ] GC(6) Survivor regions: 2->5(7)
[2021-10-24T17:26:40.994+0200][gc,heap       ] GC(6) Old regions: 13->13
[2021-10-24T17:26:40.994+0200][gc,heap       ] GC(6) Humongous regions: 129->129
[2021-10-24T17:26:40.994+0200][gc,metaspace  ] GC(6) Metaspace: 41874K->41874K(1087488K)
[2021-10-24T17:26:40.994+0200][gc            ] GC(6) Pause Young (Concurrent Start) (G1 Evacuation Pause) 191M->145M(1024M) 15.560ms
[2021-10-24T17:26:40.994+0200][gc,cpu        ] GC(6) User=0.01s Sys=0.01s Real=0.02s
[2021-10-24T17:26:40.994+0200][gc            ] GC(7) Concurrent Cycle
[2021-10-24T17:26:40.994+0200][gc,marking    ] GC(7) Concurrent Clear Claimed Marks
[2021-10-24T17:26:40.994+0200][gc,marking    ] GC(7) Concurrent Clear Claimed Marks 0.181ms
[2021-10-24T17:26:40.994+0200][gc,marking    ] GC(7) Concurrent Scan Root Regions
[2021-10-24T17:26:40.999+0200][gc,marking    ] GC(7) Concurrent Scan Root Regions 4.366ms
[2021-10-24T17:26:40.999+0200][gc,marking    ] GC(7) Concurrent Mark (495.595s)
[2021-10-24T17:26:40.999+0200][gc,marking    ] GC(7) Concurrent Mark From Roots
[2021-10-24T17:26:40.999+0200][gc,task       ] GC(7) Using 1 workers of 1 for marking
[2021-10-24T17:26:41.019+0200][gc,marking    ] GC(7) Concurrent Mark From Roots 20.330ms
[2021-10-24T17:26:41.019+0200][gc,marking    ] GC(7) Concurrent Preclean
[2021-10-24T17:26:41.019+0200][gc,marking    ] GC(7) Concurrent Preclean 0.067ms
[2021-10-24T17:26:41.019+0200][gc,marking    ] GC(7) Concurrent Mark (495.595s, 495.615s) 20.458ms
[2021-10-24T17:26:41.019+0200][gc,start      ] GC(7) Pause Remark
[2021-10-24T17:26:41.025+0200][gc,stringtable] GC(7) Cleaned string and symbol table, strings: 11276 processed, 4 removed, symbols: 90215 processed, 4 removed
[2021-10-24T17:26:41.025+0200][gc            ] GC(7) Pause Remark 145M->145M(1024M) 5.570ms
[2021-10-24T17:26:41.025+0200][gc,cpu        ] GC(7) User=0.01s Sys=0.00s Real=0.01s
[2021-10-24T17:26:41.025+0200][gc,marking    ] GC(7) Concurrent Rebuild Remembered Sets
[2021-10-24T17:26:41.050+0200][gc,marking    ] GC(7) Concurrent Rebuild Remembered Sets 25.238ms
[2021-10-24T17:26:41.051+0200][gc,start      ] GC(7) Pause Cleanup
[2021-10-24T17:26:41.051+0200][gc            ] GC(7) Pause Cleanup 145M->145M(1024M) 0.198ms
[2021-10-24T17:26:41.051+0200][gc,cpu        ] GC(7) User=0.00s Sys=0.00s Real=0.00s
[2021-10-24T17:26:41.051+0200][gc,marking    ] GC(7) Concurrent Cleanup for Next Mark
[2021-10-24T17:26:41.059+0200][gc,marking    ] GC(7) Concurrent Cleanup for Next Mark 7.777ms
[2021-10-24T17:26:41.059+0200][gc            ] GC(7) Concurrent Cycle 64.667ms
[2021-10-24T17:34:09.840+0200][gc,start      ] GC(8) Pause Young (Normal) (G1 Evacuation Pause)
[2021-10-24T17:34:09.840+0200][gc,task       ] GC(8) Using 2 workers of 2 for evacuation
[2021-10-24T17:34:09.868+0200][gc,mmu        ] GC(8) MMU target violated: 21.0ms (20.0ms/21.0ms)
[2021-10-24T17:34:09.868+0200][gc,phases     ] GC(8)   Pre Evacuate Collection Set: 0.4ms
[2021-10-24T17:34:09.868+0200][gc,phases     ] GC(8)   Evacuate Collection Set: 26.1ms
[2021-10-24T17:34:09.868+0200][gc,phases     ] GC(8)   Post Evacuate Collection Set: 0.8ms
[2021-10-24T17:34:09.868+0200][gc,phases     ] GC(8)   Other: 1.0ms
[2021-10-24T17:34:09.868+0200][gc,heap       ] GC(8) Eden regions: 46->0(47)
[2021-10-24T17:34:09.868+0200][gc,heap       ] GC(8) Survivor regions: 5->4(7)
[2021-10-24T17:34:09.868+0200][gc,heap       ] GC(8) Old regions: 13->15
[2021-10-24T17:34:09.868+0200][gc,heap       ] GC(8) Humongous regions: 129->129
[2021-10-24T17:34:09.868+0200][gc,metaspace  ] GC(8) Metaspace: 42203K->42203K(1087488K)
[2021-10-24T17:34:09.868+0200][gc            ] GC(8) Pause Young (Normal) (G1 Evacuation Pause) 191M->145M(1024M) 28.286ms
[2021-10-24T17:34:09.868+0200][gc,cpu        ] GC(8) User=0.05s Sys=0.00s Real=0.03s
[2021-10-24T17:42:19.751+0200][gc,start      ] GC(9) Pause Young (Normal) (G1 Evacuation Pause)
[2021-10-24T17:42:19.751+0200][gc,task       ] GC(9) Using 2 workers of 2 for evacuation
[2021-10-24T17:42:19.758+0200][gc,phases     ] GC(9)   Pre Evacuate Collection Set: 0.3ms
[2021-10-24T17:42:19.758+0200][gc,phases     ] GC(9)   Evacuate Collection Set: 6.4ms
[2021-10-24T17:42:19.758+0200][gc,phases     ] GC(9)   Post Evacuate Collection Set: 0.5ms
[2021-10-24T17:42:19.758+0200][gc,phases     ] GC(9)   Other: 0.6ms
[2021-10-24T17:42:19.758+0200][gc,heap       ] GC(9) Eden regions: 47->0(47)
[2021-10-24T17:42:19.758+0200][gc,heap       ] GC(9) Survivor regions: 4->4(7)
[2021-10-24T17:42:19.758+0200][gc,heap       ] GC(9) Old regions: 15->15
[2021-10-24T17:42:19.758+0200][gc,heap       ] GC(9) Humongous regions: 129->129
[2021-10-24T17:42:19.758+0200][gc,metaspace  ] GC(9) Metaspace: 42452K->42452K(1087488K)
[2021-10-24T17:42:19.759+0200][gc            ] GC(9) Pause Young (Normal) (G1 Evacuation Pause) 192M->145M(1024M) 8.395ms
[2021-10-24T17:42:19.759+0200][gc,cpu        ] GC(9) User=0.01s Sys=0.00s Real=0.00s
[2021-10-24T17:50:26.711+0200][gc,start      ] GC(10) Pause Young (Normal) (G1 Evacuation Pause)
[2021-10-24T17:50:26.711+0200][gc,task       ] GC(10) Using 2 workers of 2 for evacuation
[2021-10-24T17:50:26.724+0200][gc,phases     ] GC(10)   Pre Evacuate Collection Set: 0.1ms
[2021-10-24T17:50:26.724+0200][gc,phases     ] GC(10)   Evacuate Collection Set: 12.1ms
[2021-10-24T17:50:26.724+0200][gc,phases     ] GC(10)   Post Evacuate Collection Set: 0.6ms
[2021-10-24T17:50:26.724+0200][gc,phases     ] GC(10)   Other: 0.4ms
[2021-10-24T17:50:26.724+0200][gc,heap       ] GC(10) Eden regions: 47->0(47)
[2021-10-24T17:50:26.724+0200][gc,heap       ] GC(10) Survivor regions: 4->4(7)
[2021-10-24T17:50:26.724+0200][gc,heap       ] GC(10) Old regions: 15->15
[2021-10-24T17:50:26.724+0200][gc,heap       ] GC(10) Humongous regions: 129->129
[2021-10-24T17:50:26.724+0200][gc,metaspace  ] GC(10) Metaspace: 42526K->42526K(1087488K)
[2021-10-24T17:50:26.724+0200][gc            ] GC(10) Pause Young (Normal) (G1 Evacuation Pause) 192M->145M(1024M) 13.198ms
[2021-10-24T17:50:26.724+0200][gc,cpu        ] GC(10) User=0.01s Sys=0.00s Real=0.01s
[2021-10-24T17:58:11.748+0200][gc,start      ] GC(11) Pause Young (Normal) (G1 Evacuation Pause)
[2021-10-24T17:58:11.749+0200][gc,task       ] GC(11) Using 2 workers of 2 for evacuation
[2021-10-24T17:58:11.763+0200][gc,phases     ] GC(11)   Pre Evacuate Collection Set: 0.1ms
[2021-10-24T17:58:11.763+0200][gc,phases     ] GC(11)   Evacuate Collection Set: 10.7ms
[2021-10-24T17:58:11.763+0200][gc,phases     ] GC(11)   Post Evacuate Collection Set: 3.2ms
[2021-10-24T17:58:11.763+0200][gc,phases     ] GC(11)   Other: 0.5ms
[2021-10-24T17:58:11.763+0200][gc,heap       ] GC(11) Eden regions: 47->0(47)
[2021-10-24T17:58:11.763+0200][gc,heap       ] GC(11) Survivor regions: 4->4(7)
[2021-10-24T17:58:11.763+0200][gc,heap       ] GC(11) Old regions: 15->15
[2021-10-24T17:58:11.763+0200][gc,heap       ] GC(11) Humongous regions: 129->129
[2021-10-24T17:58:11.763+0200][gc,metaspace  ] GC(11) Metaspace: 43165K->43165K(1087488K)
[2021-10-24T17:58:11.763+0200][gc            ] GC(11) Pause Young (Normal) (G1 Evacuation Pause) 192M->145M(1024M) 14.637ms
[2021-10-24T17:58:11.763+0200][gc,cpu        ] GC(11) User=0.02s Sys=0.00s Real=0.02s
[2021-10-24T17:58:29.828+0200][gc,heap,exit  ] Heap
[2021-10-24T17:58:29.828+0200][gc,heap,exit  ]  garbage-first heap   total 1048576K, used 161008K [0x00000000c0000000, 0x0000000100000000)
[2021-10-24T17:58:29.828+0200][gc,heap,exit  ]   region size 1024K, 18 young (18432K), 4 survivors (4096K)
[2021-10-24T17:58:29.828+0200][gc,heap,exit  ]  Metaspace       used 43999K, capacity 46739K, committed 47004K, reserved 1089536K
[2021-10-24T17:58:29.828+0200][gc,heap,exit  ]   class space    used 6184K, capacity 7545K, committed 7628K, reserved 1048576K
