[2021-10-24T17:18:03.323+0200][gc,heap] Heap region size: 1M
[2021-10-24T17:18:03.329+0200][gc     ] Using G1
[2021-10-24T17:18:03.329+0200][gc,heap,coops] Heap address: 0x00000000e0000000, size: 512 MB, Compressed Oops mode: 32-bit
[2021-10-24T17:18:03.329+0200][gc,cds       ] Mark closed archive regions in map: [0x00000000fff00000, 0x00000000fff6aff8]
[2021-10-24T17:18:03.329+0200][gc,cds       ] Mark open archive regions in map: [0x00000000ffe00000, 0x00000000ffe46ff8]
[2021-10-24T17:18:04.855+0200][gc,start     ] GC(0) Pause Young (Normal) (G1 Evacuation Pause)
[2021-10-24T17:18:04.855+0200][gc,task      ] GC(0) Using 2 workers of 2 for evacuation
[2021-10-24T17:18:04.866+0200][gc,phases    ] GC(0)   Pre Evacuate Collection Set: 0.0ms
[2021-10-24T17:18:04.866+0200][gc,phases    ] GC(0)   Evacuate Collection Set: 9.7ms
[2021-10-24T17:18:04.866+0200][gc,phases    ] GC(0)   Post Evacuate Collection Set: 0.4ms
[2021-10-24T17:18:04.866+0200][gc,phases    ] GC(0)   Other: 0.5ms
[2021-10-24T17:18:04.866+0200][gc,heap      ] GC(0) Eden regions: 25->0(21)
[2021-10-24T17:18:04.866+0200][gc,heap      ] GC(0) Survivor regions: 0->4(4)
[2021-10-24T17:18:04.866+0200][gc,heap      ] GC(0) Old regions: 2->5
[2021-10-24T17:18:04.866+0200][gc,heap      ] GC(0) Humongous regions: 0->0
[2021-10-24T17:18:04.866+0200][gc,metaspace ] GC(0) Metaspace: 7781K->7781K(1056768K)
[2021-10-24T17:18:04.866+0200][gc           ] GC(0) Pause Young (Normal) (G1 Evacuation Pause) 25M->7M(512M) 10.712ms
[2021-10-24T17:18:04.866+0200][gc,cpu       ] GC(0) User=0.01s Sys=0.01s Real=0.01s
[2021-10-24T18:07:33.883+0200][gc,start     ] GC(1) Pause Young (Normal) (G1 Evacuation Pause)
[2021-10-24T18:07:33.884+0200][gc,task      ] GC(1) Using 2 workers of 2 for evacuation
[2021-10-24T18:07:34.045+0200][gc,mmu       ] GC(1) MMU target violated: 21.0ms (20.0ms/21.0ms)
[2021-10-24T18:07:34.045+0200][gc,phases    ] GC(1)   Pre Evacuate Collection Set: 41.6ms
[2021-10-24T18:07:34.045+0200][gc,phases    ] GC(1)   Evacuate Collection Set: 117.4ms
[2021-10-24T18:07:34.045+0200][gc,phases    ] GC(1)   Post Evacuate Collection Set: 1.0ms
[2021-10-24T18:07:34.045+0200][gc,phases    ] GC(1)   Other: 2.7ms
[2021-10-24T18:07:34.045+0200][gc,heap      ] GC(1) Eden regions: 21->0(24)
[2021-10-24T18:07:34.045+0200][gc,heap      ] GC(1) Survivor regions: 4->1(4)
[2021-10-24T18:07:34.045+0200][gc,heap      ] GC(1) Old regions: 5->9
[2021-10-24T18:07:34.045+0200][gc,heap      ] GC(1) Humongous regions: 0->0
[2021-10-24T18:07:34.045+0200][gc,metaspace ] GC(1) Metaspace: 9421K->9421K(1058816K)
[2021-10-24T18:07:34.045+0200][gc           ] GC(1) Pause Young (Normal) (G1 Evacuation Pause) 28M->8M(512M) 162.143ms
[2021-10-24T18:07:34.045+0200][gc,cpu       ] GC(1) User=0.00s Sys=0.10s Real=0.16s
[2021-10-24T18:40:21.774+0200][gc,heap,exit ] Heap
[2021-10-24T18:40:21.774+0200][gc,heap,exit ]  garbage-first heap   total 524288K, used 17813K [0x00000000e0000000, 0x0000000100000000)
[2021-10-24T18:40:21.774+0200][gc,heap,exit ]   region size 1024K, 11 young (11264K), 1 survivors (1024K)
[2021-10-24T18:40:21.774+0200][gc,heap,exit ]  Metaspace       used 9534K, capacity 9879K, committed 10240K, reserved 1058816K
[2021-10-24T18:40:21.774+0200][gc,heap,exit ]   class space    used 1003K, capacity 1155K, committed 1280K, reserved 1048576K
