[2021-10-21T02:00:28.977+0200][gc,heap] Heap region size: 1M
[2021-10-21T02:00:28.983+0200][gc     ] Using G1
[2021-10-21T02:00:28.983+0200][gc,heap,coops] Heap address: 0x00000000e0000000, size: 512 MB, Compressed Oops mode: 32-bit
[2021-10-21T02:00:28.983+0200][gc,cds       ] Mark closed archive regions in map: [0x00000000fff00000, 0x00000000fff6aff8]
[2021-10-21T02:00:28.983+0200][gc,cds       ] Mark open archive regions in map: [0x00000000ffe00000, 0x00000000ffe46ff8]
[2021-10-21T02:00:30.399+0200][gc,start     ] GC(0) Pause Young (Normal) (G1 Evacuation Pause)
[2021-10-21T02:00:30.400+0200][gc,task      ] GC(0) Using 2 workers of 2 for evacuation
[2021-10-21T02:00:30.419+0200][gc,phases    ] GC(0)   Pre Evacuate Collection Set: 0.0ms
[2021-10-21T02:00:30.419+0200][gc,phases    ] GC(0)   Evacuate Collection Set: 18.9ms
[2021-10-21T02:00:30.419+0200][gc,phases    ] GC(0)   Post Evacuate Collection Set: 0.3ms
[2021-10-21T02:00:30.419+0200][gc,phases    ] GC(0)   Other: 1.0ms
[2021-10-21T02:00:30.419+0200][gc,heap      ] GC(0) Eden regions: 25->0(21)
[2021-10-21T02:00:30.419+0200][gc,heap      ] GC(0) Survivor regions: 0->4(4)
[2021-10-21T02:00:30.419+0200][gc,heap      ] GC(0) Old regions: 2->5
[2021-10-21T02:00:30.419+0200][gc,heap      ] GC(0) Humongous regions: 0->0
[2021-10-21T02:00:30.419+0200][gc,metaspace ] GC(0) Metaspace: 7826K->7826K(1056768K)
[2021-10-21T02:00:30.419+0200][gc           ] GC(0) Pause Young (Normal) (G1 Evacuation Pause) 25M->7M(512M) 20.167ms
[2021-10-21T02:00:30.419+0200][gc,cpu       ] GC(0) User=0.00s Sys=0.03s Real=0.02s
[2021-10-21T03:26:17.507+0200][gc,start     ] GC(1) Pause Young (Normal) (G1 Evacuation Pause)
[2021-10-21T03:26:17.508+0200][gc,task      ] GC(1) Using 2 workers of 2 for evacuation
[2021-10-21T03:26:17.547+0200][gc,mmu       ] GC(1) MMU target violated: 21.0ms (20.0ms/21.0ms)
[2021-10-21T03:26:17.547+0200][gc,phases    ] GC(1)   Pre Evacuate Collection Set: 3.2ms
[2021-10-21T03:26:17.547+0200][gc,phases    ] GC(1)   Evacuate Collection Set: 34.2ms
[2021-10-21T03:26:17.547+0200][gc,phases    ] GC(1)   Post Evacuate Collection Set: 0.4ms
[2021-10-21T03:26:17.547+0200][gc,phases    ] GC(1)   Other: 2.5ms
[2021-10-21T03:26:17.547+0200][gc,heap      ] GC(1) Eden regions: 21->0(24)
[2021-10-21T03:26:17.547+0200][gc,heap      ] GC(1) Survivor regions: 4->1(4)
[2021-10-21T03:26:17.547+0200][gc,heap      ] GC(1) Old regions: 5->10
[2021-10-21T03:26:17.547+0200][gc,heap      ] GC(1) Humongous regions: 0->0
[2021-10-21T03:26:17.547+0200][gc,metaspace ] GC(1) Metaspace: 9323K->9323K(1058816K)
[2021-10-21T03:26:17.547+0200][gc           ] GC(1) Pause Young (Normal) (G1 Evacuation Pause) 28M->8M(512M) 40.050ms
[2021-10-21T03:26:17.547+0200][gc,cpu       ] GC(1) User=0.06s Sys=0.00s Real=0.04s
[2021-10-21T06:17:26.258+0200][gc,start     ] GC(2) Pause Young (Normal) (G1 Evacuation Pause)
[2021-10-21T06:17:26.259+0200][gc,task      ] GC(2) Using 2 workers of 2 for evacuation
[2021-10-21T06:17:26.275+0200][gc,phases    ] GC(2)   Pre Evacuate Collection Set: 4.1ms
[2021-10-21T06:17:26.275+0200][gc,phases    ] GC(2)   Evacuate Collection Set: 9.7ms
[2021-10-21T06:17:26.275+0200][gc,phases    ] GC(2)   Post Evacuate Collection Set: 2.0ms
[2021-10-21T06:17:26.275+0200][gc,phases    ] GC(2)   Other: 1.5ms
[2021-10-21T06:17:26.275+0200][gc,heap      ] GC(2) Eden regions: 24->0(24)
[2021-10-21T06:17:26.275+0200][gc,heap      ] GC(2) Survivor regions: 1->1(4)
[2021-10-21T06:17:26.275+0200][gc,heap      ] GC(2) Old regions: 10->10
[2021-10-21T06:17:26.275+0200][gc,heap      ] GC(2) Humongous regions: 0->0
[2021-10-21T06:17:26.275+0200][gc,metaspace ] GC(2) Metaspace: 9328K->9328K(1058816K)
[2021-10-21T06:17:26.276+0200][gc           ] GC(2) Pause Young (Normal) (G1 Evacuation Pause) 32M->8M(512M) 18.035ms
[2021-10-21T06:17:26.276+0200][gc,cpu       ] GC(2) User=0.02s Sys=0.00s Real=0.02s
[2021-10-21T09:09:17.503+0200][gc,start     ] GC(3) Pause Young (Normal) (G1 Evacuation Pause)
[2021-10-21T09:09:17.504+0200][gc,task      ] GC(3) Using 2 workers of 2 for evacuation
[2021-10-21T09:09:17.529+0200][gc,mmu       ] GC(3) MMU target violated: 21.0ms (20.0ms/21.0ms)
[2021-10-21T09:09:17.529+0200][gc,phases    ] GC(3)   Pre Evacuate Collection Set: 5.7ms
[2021-10-21T09:09:17.529+0200][gc,phases    ] GC(3)   Evacuate Collection Set: 17.8ms
[2021-10-21T09:09:17.529+0200][gc,phases    ] GC(3)   Post Evacuate Collection Set: 1.3ms
[2021-10-21T09:09:17.529+0200][gc,phases    ] GC(3)   Other: 2.2ms
[2021-10-21T09:09:17.529+0200][gc,heap      ] GC(3) Eden regions: 24->0(24)
[2021-10-21T09:09:17.530+0200][gc,heap      ] GC(3) Survivor regions: 1->1(4)
[2021-10-21T09:09:17.530+0200][gc,heap      ] GC(3) Old regions: 10->10
[2021-10-21T09:09:17.530+0200][gc,heap      ] GC(3) Humongous regions: 0->0
[2021-10-21T09:09:17.530+0200][gc,metaspace ] GC(3) Metaspace: 9338K->9338K(1058816K)
[2021-10-21T09:09:17.530+0200][gc           ] GC(3) Pause Young (Normal) (G1 Evacuation Pause) 32M->8M(512M) 27.125ms
[2021-10-21T09:09:17.530+0200][gc,cpu       ] GC(3) User=0.04s Sys=0.00s Real=0.03s
[2021-10-21T13:34:45.229+0200][gc,start     ] GC(4) Pause Young (Normal) (G1 Evacuation Pause)
[2021-10-21T13:34:45.230+0200][gc,task      ] GC(4) Using 2 workers of 2 for evacuation
[2021-10-21T13:34:45.259+0200][gc,mmu       ] GC(4) MMU target violated: 21.0ms (20.0ms/21.0ms)
[2021-10-21T13:34:45.260+0200][gc,phases    ] GC(4)   Pre Evacuate Collection Set: 7.4ms
[2021-10-21T13:34:45.260+0200][gc,phases    ] GC(4)   Evacuate Collection Set: 20.2ms
[2021-10-21T13:34:45.260+0200][gc,phases    ] GC(4)   Post Evacuate Collection Set: 1.3ms
[2021-10-21T13:34:45.260+0200][gc,phases    ] GC(4)   Other: 2.2ms
[2021-10-21T13:34:45.260+0200][gc,heap      ] GC(4) Eden regions: 24->0(24)
[2021-10-21T13:34:45.260+0200][gc,heap      ] GC(4) Survivor regions: 1->1(4)
[2021-10-21T13:34:45.260+0200][gc,heap      ] GC(4) Old regions: 10->10
[2021-10-21T13:34:45.260+0200][gc,heap      ] GC(4) Humongous regions: 0->0
[2021-10-21T13:34:45.260+0200][gc,metaspace ] GC(4) Metaspace: 9344K->9344K(1058816K)
[2021-10-21T13:34:45.262+0200][gc           ] GC(4) Pause Young (Normal) (G1 Evacuation Pause) 32M->8M(512M) 33.050ms
[2021-10-21T13:34:45.262+0200][gc,cpu       ] GC(4) User=0.05s Sys=0.00s Real=0.03s
[2021-10-21T16:26:42.343+0200][gc,start     ] GC(5) Pause Young (Normal) (G1 Evacuation Pause)
[2021-10-21T16:26:42.343+0200][gc,task      ] GC(5) Using 2 workers of 2 for evacuation
[2021-10-21T16:26:42.368+0200][gc,mmu       ] GC(5) MMU target violated: 21.0ms (20.0ms/21.0ms)
[2021-10-21T16:26:42.369+0200][gc,phases    ] GC(5)   Pre Evacuate Collection Set: 3.2ms
[2021-10-21T16:26:42.369+0200][gc,phases    ] GC(5)   Evacuate Collection Set: 19.7ms
[2021-10-21T16:26:42.369+0200][gc,phases    ] GC(5)   Post Evacuate Collection Set: 2.0ms
[2021-10-21T16:26:42.369+0200][gc,phases    ] GC(5)   Other: 1.1ms
[2021-10-21T16:26:42.369+0200][gc,heap      ] GC(5) Eden regions: 24->0(24)
[2021-10-21T16:26:42.369+0200][gc,heap      ] GC(5) Survivor regions: 1->1(4)
[2021-10-21T16:26:42.369+0200][gc,heap      ] GC(5) Old regions: 10->10
[2021-10-21T16:26:42.369+0200][gc,heap      ] GC(5) Humongous regions: 0->0
[2021-10-21T16:26:42.369+0200][gc,metaspace ] GC(5) Metaspace: 9344K->9344K(1058816K)
[2021-10-21T16:26:42.369+0200][gc           ] GC(5) Pause Young (Normal) (G1 Evacuation Pause) 32M->8M(512M) 26.356ms
[2021-10-21T16:26:42.369+0200][gc,cpu       ] GC(5) User=0.03s Sys=0.00s Real=0.03s
[2021-10-21T19:22:41.052+0200][gc,start     ] GC(6) Pause Young (Normal) (G1 Evacuation Pause)
[2021-10-21T19:22:41.053+0200][gc,task      ] GC(6) Using 2 workers of 2 for evacuation
[2021-10-21T19:22:41.084+0200][gc,mmu       ] GC(6) MMU target violated: 21.0ms (20.0ms/21.0ms)
[2021-10-21T19:22:41.084+0200][gc,phases    ] GC(6)   Pre Evacuate Collection Set: 8.2ms
[2021-10-21T19:22:41.084+0200][gc,phases    ] GC(6)   Evacuate Collection Set: 20.8ms
[2021-10-21T19:22:41.084+0200][gc,phases    ] GC(6)   Post Evacuate Collection Set: 1.2ms
[2021-10-21T19:22:41.084+0200][gc,phases    ] GC(6)   Other: 2.4ms
[2021-10-21T19:22:41.084+0200][gc,heap      ] GC(6) Eden regions: 24->0(24)
[2021-10-21T19:22:41.084+0200][gc,heap      ] GC(6) Survivor regions: 1->1(4)
[2021-10-21T19:22:41.084+0200][gc,heap      ] GC(6) Old regions: 10->10
[2021-10-21T19:22:41.084+0200][gc,heap      ] GC(6) Humongous regions: 0->0
[2021-10-21T19:22:41.084+0200][gc,metaspace ] GC(6) Metaspace: 9344K->9344K(1058816K)
[2021-10-21T19:22:41.086+0200][gc           ] GC(6) Pause Young (Normal) (G1 Evacuation Pause) 32M->8M(512M) 33.984ms
[2021-10-21T19:22:41.086+0200][gc,cpu       ] GC(6) User=0.05s Sys=0.00s Real=0.04s
[2021-10-21T22:17:13.052+0200][gc,start     ] GC(7) Pause Young (Normal) (G1 Evacuation Pause)
[2021-10-21T22:17:13.052+0200][gc,task      ] GC(7) Using 2 workers of 2 for evacuation
[2021-10-21T22:17:13.062+0200][gc,phases    ] GC(7)   Pre Evacuate Collection Set: 1.7ms
[2021-10-21T22:17:13.062+0200][gc,phases    ] GC(7)   Evacuate Collection Set: 6.7ms
[2021-10-21T22:17:13.062+0200][gc,phases    ] GC(7)   Post Evacuate Collection Set: 1.1ms
[2021-10-21T22:17:13.062+0200][gc,phases    ] GC(7)   Other: 0.4ms
[2021-10-21T22:17:13.062+0200][gc,heap      ] GC(7) Eden regions: 24->0(24)
[2021-10-21T22:17:13.062+0200][gc,heap      ] GC(7) Survivor regions: 1->1(4)
[2021-10-21T22:17:13.062+0200][gc,heap      ] GC(7) Old regions: 10->10
[2021-10-21T22:17:13.062+0200][gc,heap      ] GC(7) Humongous regions: 0->0
[2021-10-21T22:17:13.062+0200][gc,metaspace ] GC(7) Metaspace: 9347K->9347K(1058816K)
[2021-10-21T22:17:13.062+0200][gc           ] GC(7) Pause Young (Normal) (G1 Evacuation Pause) 32M->8M(512M) 9.897ms
[2021-10-21T22:17:13.062+0200][gc,cpu       ] GC(7) User=0.01s Sys=0.00s Real=0.01s
[2021-10-22T00:16:18.460+0200][gc,heap,exit ] Heap
[2021-10-22T00:16:18.460+0200][gc,heap,exit ]  garbage-first heap   total 524288K, used 26025K [0x00000000e0000000, 0x0000000100000000)
[2021-10-22T00:16:18.460+0200][gc,heap,exit ]   region size 1024K, 19 young (19456K), 1 survivors (1024K)
[2021-10-22T00:16:18.460+0200][gc,heap,exit ]  Metaspace       used 9357K, capacity 9766K, committed 10240K, reserved 1058816K
[2021-10-22T00:16:18.460+0200][gc,heap,exit ]   class space    used 998K, capacity 1155K, committed 1280K, reserved 1048576K
