[2021-10-19T21:21:14.564+0200][gc,heap] Heap region size: 1M
[2021-10-19T21:21:14.569+0200][gc     ] Using G1
[2021-10-19T21:21:14.569+0200][gc,heap,coops] Heap address: 0x00000000e0000000, size: 512 MB, Compressed Oops mode: 32-bit
[2021-10-19T21:21:14.569+0200][gc,cds       ] Mark closed archive regions in map: [0x00000000fff00000, 0x00000000fff6aff8]
[2021-10-19T21:21:14.569+0200][gc,cds       ] Mark open archive regions in map: [0x00000000ffe00000, 0x00000000ffe46ff8]
[2021-10-19T21:21:15.098+0200][gc,start     ] GC(0) Pause Young (Normal) (G1 Evacuation Pause)
[2021-10-19T21:21:15.099+0200][gc,task      ] GC(0) Using 2 workers of 2 for evacuation
[2021-10-19T21:21:15.112+0200][gc,phases    ] GC(0)   Pre Evacuate Collection Set: 0.0ms
[2021-10-19T21:21:15.112+0200][gc,phases    ] GC(0)   Evacuate Collection Set: 13.0ms
[2021-10-19T21:21:15.112+0200][gc,phases    ] GC(0)   Post Evacuate Collection Set: 0.4ms
[2021-10-19T21:21:15.112+0200][gc,phases    ] GC(0)   Other: 0.5ms
[2021-10-19T21:21:15.112+0200][gc,heap      ] GC(0) Eden regions: 25->0(21)
[2021-10-19T21:21:15.112+0200][gc,heap      ] GC(0) Survivor regions: 0->4(4)
[2021-10-19T21:21:15.112+0200][gc,heap      ] GC(0) Old regions: 2->5
[2021-10-19T21:21:15.112+0200][gc,heap      ] GC(0) Humongous regions: 0->0
[2021-10-19T21:21:15.112+0200][gc,metaspace ] GC(0) Metaspace: 7602K->7602K(1056768K)
[2021-10-19T21:21:15.112+0200][gc           ] GC(0) Pause Young (Normal) (G1 Evacuation Pause) 25M->7M(512M) 13.908ms
[2021-10-19T21:21:15.112+0200][gc,cpu       ] GC(0) User=0.02s Sys=0.00s Real=0.01s
[2021-10-19T21:42:47.255+0200][gc,heap,exit ] Heap
[2021-10-19T21:42:47.256+0200][gc,heap,exit ]  garbage-first heap   total 524288K, used 18897K [0x00000000e0000000, 0x0000000100000000)
[2021-10-19T21:42:47.256+0200][gc,heap,exit ]   region size 1024K, 16 young (16384K), 4 survivors (4096K)
[2021-10-19T21:42:47.256+0200][gc,heap,exit ]  Metaspace       used 9216K, capacity 9633K, committed 9984K, reserved 1058816K
[2021-10-19T21:42:47.256+0200][gc,heap,exit ]   class space    used 997K, capacity 1155K, committed 1280K, reserved 1048576K
